<?xml version="1.0" encoding="utf-8"?>
<!-- Generator: Adobe Illustrator 17.0.0, SVG Export Plug-In . SVG Version: 6.00 Build 0)  -->
<!DOCTYPE svg PUBLIC "-//W3C//DTD SVG 1.1//EN" "http://www.w3.org/Graphics/SVG/1.1/DTD/svg11.dtd">
<svg version="1.1" id="Layer_1" xmlns="http://www.w3.org/2000/svg" xmlns:xlink="http://www.w3.org/1999/xlink" x="0px" y="0px"
	 width="215.52px" height="54.055px" viewBox="0 0 215.52 54.055" enable-background="new 0 0 215.52 54.055" xml:space="preserve">
<text transform="matrix(1 0 0 1 53.6256 38.4016)" font-family="'Helvetica35-Thin'" font-size="35.3803">Add Oil</text>
<path fill="none" stroke="#799BD0" stroke-width="4" stroke-miterlimit="10" d="M213.52,27.027
	c0,13.822-11.205,25.028-25.027,25.028H27.027C13.205,52.055,2,40.85,2,27.027l0,0C2,13.205,13.205,2,27.027,2h161.465
	C202.314,2,213.52,13.205,213.52,27.027L213.52,27.027z"/>
</svg>
