<?xml version="1.0" encoding="utf-8"?>
<!-- Generator: Adobe Illustrator 17.0.0, SVG Export Plug-In . SVG Version: 6.00 Build 0)  -->
<!DOCTYPE svg PUBLIC "-//W3C//DTD SVG 1.1//EN" "http://www.w3.org/Graphics/SVG/1.1/DTD/svg11.dtd">
<svg version="1.1" id="Layer_1" xmlns="http://www.w3.org/2000/svg" xmlns:xlink="http://www.w3.org/1999/xlink" x="0px" y="0px"
	 width="211.52px" height="50.055px" viewBox="0 0 211.52 50.055" enable-background="new 0 0 211.52 50.055" xml:space="preserve">
<g>
	<path fill="#799BD0" d="M211.52,25.027c0,13.822-11.205,25.028-25.027,25.028H25.028C11.205,50.055,0,38.85,0,25.027l0,0
		C0,11.205,11.205,0,25.028,0h161.465C200.314,0,211.52,11.205,211.52,25.027L211.52,25.027z"/>
</g>
<g>
	<path fill="#FFFFFF" d="M45.507,11.14h1.557v25.262h-1.557V11.14z"/>
	<path fill="#FFFFFF" d="M70.557,11.14l9.977,25.262h-1.663l-3.185-8.103h-12.1l-3.22,8.103h-1.663L68.858,11.14H70.557z
		 M75.191,26.955l-5.413-14.294h-0.071l-5.625,14.294H75.191z"/>
	<path fill="#FFFFFF" d="M104.273,24.019v12.383h-1.345v-5.378h-0.07c-0.614,1.816-1.793,3.268-3.538,4.352
		c-1.746,1.085-3.75,1.628-6.015,1.628c-1.864,0-3.538-0.336-5.024-1.009c-1.486-0.672-2.742-1.604-3.768-2.795
		c-1.026-1.19-1.799-2.583-2.317-4.175c-0.52-1.592-0.778-3.296-0.778-5.112c0-1.792,0.265-3.496,0.796-5.112
		c0.53-1.615,1.314-3.049,2.353-4.299s2.3-2.223,3.786-2.919c1.485-0.695,3.148-1.044,4.988-1.044c1.297,0,2.53,0.189,3.697,0.566
		c1.167,0.378,2.229,0.938,3.185,1.681c0.955,0.743,1.745,1.64,2.37,2.688c0.625,1.05,1.044,2.212,1.256,3.485h-1.486
		c-0.59-2.217-1.669-3.95-3.237-5.201c-1.569-1.25-3.485-1.875-5.75-1.875c-1.651,0-3.131,0.318-4.44,0.955
		s-2.406,1.516-3.291,2.636c-0.884,1.121-1.551,2.406-1.999,3.856c-0.448,1.451-0.672,2.979-0.672,4.582
		c0,1.628,0.218,3.155,0.654,4.582s1.097,2.677,1.981,3.75s1.981,1.91,3.29,2.512c1.31,0.602,2.801,0.902,4.476,0.902
		c2.925,0,5.248-0.914,6.97-2.742c1.721-1.827,2.583-4.346,2.583-7.554h-9.305v-1.344H104.273z"/>
	<path fill="#FFFFFF" d="M108.555,11.14h10.543c1.155,0,2.217,0.118,3.185,0.354c0.967,0.236,1.81,0.608,2.529,1.115
		s1.279,1.18,1.681,2.017c0.4,0.837,0.602,1.846,0.602,3.024c0,1.698-0.484,3.132-1.451,4.299c-0.967,1.168-2.287,1.894-3.962,2.176
		v0.071c0.896,0.095,1.65,0.301,2.265,0.619c0.612,0.318,1.102,0.726,1.468,1.221c0.365,0.495,0.637,1.038,0.813,1.627
		c0.178,0.59,0.301,1.238,0.372,1.946c0.047,0.543,0.082,1.368,0.106,2.477c0.022,1.18,0.076,2.088,0.158,2.725
		c0.083,0.637,0.277,1.167,0.584,1.592h-1.733c-0.236-0.425-0.396-0.932-0.478-1.521c-0.083-0.589-0.124-1.297-0.124-2.123
		c0-1.062,0-1.821,0-2.281s-0.023-0.844-0.071-1.15c-0.094-0.684-0.247-1.279-0.459-1.786c-0.213-0.508-0.543-0.961-0.991-1.362
		s-1.044-0.714-1.786-0.938c-0.743-0.225-1.646-0.337-2.707-0.337h-8.986v11.499h-1.557V11.14z M119.098,23.559
		c1.957,0,3.521-0.483,4.688-1.451c1.168-0.967,1.752-2.417,1.752-4.352c0-0.92-0.172-1.716-0.514-2.388
		c-0.342-0.673-0.808-1.221-1.396-1.646c-0.59-0.425-1.274-0.737-2.053-0.938s-1.604-0.301-2.477-0.301h-8.986v11.074H119.098z"/>
	<path fill="#FFFFFF" d="M148.003,35.057v1.345h-17.159V11.14h16.982v1.345H132.4v10.119h14.506v1.344H132.4v11.109H148.003z"/>
	<path fill="#FFFFFF" d="M167.816,35.057v1.345h-17.16V11.14h16.982v1.345h-15.426v10.119h14.506v1.344h-14.506v11.109H167.816z"/>
</g>
</svg>
