<?xml version="1.0" encoding="utf-8"?>
<!-- Generator: Adobe Illustrator 17.0.0, SVG Export Plug-In . SVG Version: 6.00 Build 0)  -->
<!DOCTYPE svg PUBLIC "-//W3C//DTD SVG 1.1//EN" "http://www.w3.org/Graphics/SVG/1.1/DTD/svg11.dtd">
<svg version="1.1" id="Layer_1" xmlns="http://www.w3.org/2000/svg" xmlns:xlink="http://www.w3.org/1999/xlink" x="0px" y="0px"
	 width="245.366px" height="61.118px" viewBox="0 0 245.366 61.118" enable-background="new 0 0 245.366 61.118"
	 xml:space="preserve">
<text transform="matrix(1 0 0 1 33.9154 43.7014)" font-family="'Helvetica35-Thin'" font-size="36">How to Use</text>
<path fill="none" stroke="#799BD0" stroke-width="4" stroke-miterlimit="10" d="M243.366,30.559
	c0,15.773-12.786,28.559-28.559,28.559H30.559C14.786,59.118,2,46.332,2,30.559l0,0C2,14.786,14.786,2,30.559,2h184.248
	C230.58,2,243.366,14.786,243.366,30.559L243.366,30.559z"/>
</svg>
