<?xml version="1.0" encoding="utf-8"?>
<!-- Generator: Adobe Illustrator 17.0.0, SVG Export Plug-In . SVG Version: 6.00 Build 0)  -->
<!DOCTYPE svg PUBLIC "-//W3C//DTD SVG 1.1//EN" "http://www.w3.org/Graphics/SVG/1.1/DTD/svg11.dtd">
<svg version="1.1" id="Layer_1" xmlns="http://www.w3.org/2000/svg" xmlns:xlink="http://www.w3.org/1999/xlink" x="0px" y="0px"
	 width="464.164px" height="77.361px" viewBox="0 0 464.164 77.361" enable-background="new 0 0 464.164 77.361"
	 xml:space="preserve">
<g>
	<path d="M0,0h24.935c6.535,0,12.094,1.03,16.676,3.09c4.582,2.062,8.222,4.867,10.922,8.418c2.699,3.553,4.635,7.565,5.807,12.041
		c1.172,4.476,1.758,9.271,1.758,14.385c0,5.471-0.711,10.514-2.131,15.131c-1.422,4.619-3.588,8.649-6.5,12.094
		c-2.914,3.447-6.606,6.127-11.082,8.045c-4.475,1.918-9.697,2.877-15.664,2.877H0V0z M4.688,72.033h20.459
		c3.836,0,7.513-0.568,11.029-1.705c3.517-1.136,6.73-3.037,9.644-5.701c2.912-2.664,5.238-6.215,6.979-10.656
		c1.74-4.439,2.611-9.785,2.611-16.037c0-7.316-1.012-13.283-3.037-17.902c-2.024-4.617-4.635-8.08-7.832-10.389
		c-3.197-2.308-6.483-3.818-9.856-4.529c-3.375-0.709-6.873-1.065-10.496-1.065h-19.5V72.033z"/>
	<path d="M71.287,10.976V0h4.049v10.976H71.287z M71.287,76.083V21.312h4.049v54.771H71.287z"/>
	<path d="M90.147,57.861c0.283,4.974,2.113,8.881,5.488,11.722c3.373,2.842,7.583,4.262,12.627,4.262
		c2.06,0,4.066-0.176,6.021-0.533c1.953-0.354,3.799-0.959,5.541-1.812c1.74-0.853,3.143-2.041,4.209-3.57
		c1.065-1.527,1.598-3.426,1.598-5.701c0-2.131-0.463-3.89-1.385-5.275c-0.924-1.385-2.167-2.504-3.729-3.356
		c-1.563-0.853-3.268-1.527-5.115-2.024c-1.848-0.496-4.192-1.029-7.033-1.599l-1.492-0.319c-2.842-0.568-5.311-1.172-7.406-1.812
		c-2.096-0.64-4.014-1.509-5.754-2.611c-1.742-1.101-3.127-2.574-4.156-4.422c-1.031-1.846-1.545-4.084-1.545-6.713
		c0-2.558,0.568-4.759,1.705-6.607c1.136-1.846,2.664-3.32,4.582-4.422c1.918-1.101,4.031-1.881,6.34-2.344
		c2.308-0.461,4.705-0.693,7.193-0.693c6.18,0,11.099,1.422,14.758,4.263c3.658,2.842,5.488,7.246,5.488,13.213h-4.049
		c-0.072-4.758-1.563-8.275-4.476-10.549c-2.914-2.272-6.82-3.41-11.721-3.41c-1.99,0-3.908,0.196-5.754,0.586
		c-1.848,0.391-3.535,0.996-5.062,1.812c-1.528,0.817-2.735,1.918-3.623,3.303c-0.889,1.385-1.332,3.002-1.332,4.849
		c0,1.918,0.443,3.553,1.332,4.901c0.888,1.351,2.095,2.435,3.623,3.25c1.527,0.817,3.144,1.457,4.849,1.918
		c1.705,0.463,3.942,1.012,6.713,1.651c0.709,0.144,1.279,0.25,1.705,0.32c3.267,0.639,5.984,1.279,8.152,1.918
		c2.166,0.64,4.102,1.528,5.807,2.664c1.705,1.137,3.037,2.647,3.996,4.529c0.959,1.883,1.438,4.209,1.438,6.979
		s-0.639,5.151-1.918,7.139c-1.279,1.99-2.967,3.57-5.062,4.742c-2.096,1.172-4.387,2.006-6.873,2.504
		c-2.487,0.496-5.008,0.746-7.566,0.746c-6.465,0-11.739-1.705-15.824-5.115c-4.086-3.41-6.199-8.205-6.34-14.386H90.147z"/>
	<path d="M180.721,38.254c-0.356-4.688-2.256-8.312-5.701-10.869c-3.446-2.557-7.726-3.836-12.84-3.836
		c-3.34,0-6.323,0.676-8.951,2.024c-2.629,1.351-4.849,3.18-6.66,5.488c-1.812,2.31-3.18,4.938-4.103,7.885
		c-0.924,2.949-1.385,6.021-1.385,9.217c0,7.744,1.812,13.959,5.435,18.648s8.844,7.033,15.664,7.033
		c5.043,0,9.306-1.58,12.787-4.742c3.48-3.16,5.576-7.263,6.287-12.308h4.049c-0.852,6.394-3.41,11.42-7.672,15.078
		c-4.262,3.66-9.414,5.488-15.451,5.488c-4.262,0-8.01-0.783-11.242-2.344c-3.233-1.562-5.861-3.693-7.885-6.394
		c-2.025-2.699-3.535-5.808-4.529-9.324c-0.996-3.517-1.492-7.228-1.492-11.136c0-3.836,0.549-7.459,1.651-10.869
		c1.101-3.41,2.734-6.41,4.902-9.004c2.166-2.592,4.83-4.617,7.992-6.074c3.16-1.455,6.695-2.185,10.603-2.185
		c6.25,0,11.437,1.545,15.558,4.635c4.119,3.09,6.463,7.619,7.033,13.586H180.721z"/>
	<path d="M199.794,0v76.083h-4.049V0H199.794z"/>
	<path d="M253.073,65.959c0,2.131,0.195,3.766,0.586,4.902c0.39,1.137,1.401,1.705,3.037,1.705c0.709,0,1.704-0.106,2.983-0.319
		v3.41h-0.32c-1.35,0.285-2.344,0.426-2.982,0.426c-2.914,0-4.867-0.674-5.861-2.024c-0.996-1.349-1.492-3.338-1.492-5.967v-2.877
		h-0.213c-1.35,3.481-3.836,6.377-7.459,8.685s-7.922,3.463-12.894,3.463c-5.612,0-10.07-1.226-13.373-3.676
		c-3.303-2.451-4.955-6.375-4.955-11.775c0-3.053,0.586-5.611,1.758-7.672c1.172-2.06,2.734-3.676,4.688-4.849
		c1.953-1.172,4.066-2.024,6.34-2.558c2.273-0.533,4.724-0.906,7.353-1.119c4.759-0.354,8.347-0.728,10.763-1.119
		c2.414-0.39,4.209-0.959,5.381-1.705c1.172-0.746,1.918-1.74,2.238-2.984c0.32-1.242,0.479-3.106,0.479-5.594
		c0-0.781-0.231-1.758-0.692-2.93c-0.463-1.172-1.262-2.361-2.398-3.57c-1.137-1.207-2.717-2.219-4.742-3.037
		c-2.024-0.816-4.494-1.226-7.406-1.226c-4.973,0-8.951,1.262-11.935,3.783c-2.983,2.522-4.619,6.127-4.902,10.816h-4.049
		c0.283-5.967,2.201-10.478,5.754-13.533c3.551-3.053,8.595-4.582,15.131-4.582c2.627,0,5.062,0.231,7.299,0.693
		c2.238,0.463,4.262,1.225,6.074,2.291c1.812,1.065,3.232,2.541,4.262,4.422c1.029,1.883,1.545,4.174,1.545,6.873V65.959z
		 M249.024,44.967c-1.065,1.209-2.647,2.043-4.742,2.504c-2.096,0.463-5.062,0.836-8.898,1.119c-2.842,0.213-4.901,0.426-6.18,0.64
		c-4.973,0.569-8.721,1.83-11.242,3.783c-2.522,1.955-3.783,4.92-3.783,8.897c0,3.481,1.242,6.34,3.729,8.578
		c2.486,2.238,6.037,3.356,10.656,3.356c4.263,0,7.779-0.763,10.549-2.291c2.771-1.527,4.865-3.373,6.287-5.541
		c1.42-2.166,2.379-4.209,2.877-6.127c0.496-1.918,0.746-3.48,0.746-4.688V44.967z"/>
	<path d="M266.926,10.976V0h4.049v10.976H266.926z M266.926,76.083V21.312h4.049v54.771H266.926z"/>
	<path d="M283.975,21.312h4.05V32.5h0.213c0.853-3.479,2.912-6.428,6.181-8.844c3.267-2.414,6.926-3.623,10.976-3.623
		c4.83,0,8.631,1.137,11.401,3.41c2.771,2.274,4.476,5.008,5.115,8.205h0.213c1.633-3.836,3.853-6.729,6.66-8.684
		c2.805-1.953,6.375-2.931,10.709-2.931c5.185,0,9.34,1.563,12.467,4.688c3.125,3.127,4.689,7.779,4.689,13.959v37.402h-4.05V38.574
		c0-3.267-0.497-5.931-1.491-7.992c-0.996-2.06-2.203-3.586-3.623-4.582c-1.422-0.994-2.824-1.651-4.209-1.971
		c-1.386-0.32-2.648-0.479-3.783-0.479c-5.115,0-9.254,1.758-12.414,5.274c-3.162,3.517-4.742,8.472-4.742,14.865v32.394h-4.049
		V38.574c0-3.197-0.463-5.824-1.385-7.886c-0.925-2.06-2.078-3.604-3.464-4.635c-1.386-1.029-2.771-1.705-4.155-2.024
		c-1.386-0.32-2.683-0.479-3.89-0.479c-1.989,0-4.015,0.41-6.073,1.226c-2.063,0.817-3.943,2.042-5.648,3.676
		c-1.705,1.635-3.073,3.748-4.103,6.34c-1.03,2.594-1.545,5.56-1.545,8.898v32.394h-4.05V21.312z"/>
	<path d="M370.286,49.23c0,6.963,1.759,12.805,5.274,17.529c3.518,4.725,8.472,7.086,14.865,7.086c5.186,0,9.519-1.455,13-4.369
		c3.48-2.912,5.683-6.89,6.607-11.935h4.049c-1.066,6.394-3.642,11.295-7.726,14.705c-4.086,3.41-9.396,5.115-15.931,5.115
		c-7.602,0-13.533-2.611-17.795-7.832c-4.263-5.222-6.394-11.845-6.394-19.873c0-3.906,0.515-7.636,1.545-11.189
		c1.028-3.551,2.558-6.713,4.582-9.483s4.563-4.955,7.618-6.554c3.055-1.598,6.535-2.397,10.443-2.397
		c3.978,0,7.494,0.693,10.549,2.078s5.595,3.34,7.619,5.86c2.025,2.522,3.533,5.418,4.529,8.685
		c0.994,3.269,1.492,6.785,1.492,10.549c0,0.213-0.037,0.533-0.107,0.959v1.066H370.286z M410.459,45.713
		c-0.072-2.912-0.569-5.701-1.492-8.365c-0.924-2.664-2.237-5.025-3.942-7.086c-1.705-2.06-3.802-3.693-6.287-4.901
		c-2.487-1.207-5.258-1.812-8.312-1.812c-2.914,0-5.578,0.623-7.992,1.865c-2.416,1.244-4.493,2.93-6.233,5.062
		c-1.741,2.131-3.108,4.512-4.103,7.139c-0.996,2.629-1.598,5.328-1.812,8.099H410.459z"/>
	<path d="M428.041,33.459h0.318c1.066-3.551,3.533-6.517,7.406-8.897c3.871-2.379,8.4-3.57,13.586-3.57v4.049
		c-0.213,0-0.532-0.035-0.959-0.106c-0.498,0-0.852,0-1.064,0c-2.203,0-4.459,0.426-6.768,1.279s-4.422,2.238-6.34,4.156
		c-2.131,2.203-3.641,4.387-4.529,6.553c-0.889,2.168-1.438,5.24-1.65,9.217v29.943h-4.05V21.312h4.05V33.459z"/>
	<path d="M458.729,76.083V65.107h5.436v10.976H458.729z M464.057,0v25.681l-1.278,30.902h-2.558l-1.278-30.902V0H464.057z"/>
</g>
</svg>
