<?xml version="1.0" encoding="utf-8"?>
<!-- Generator: Adobe Illustrator 17.0.0, SVG Export Plug-In . SVG Version: 6.00 Build 0)  -->
<!DOCTYPE svg PUBLIC "-//W3C//DTD SVG 1.1//EN" "http://www.w3.org/Graphics/SVG/1.1/DTD/svg11.dtd">
<svg version="1.1" id="Layer_1" xmlns="http://www.w3.org/2000/svg" xmlns:xlink="http://www.w3.org/1999/xlink" x="0px" y="0px"
	 width="277.274px" height="54.055px" viewBox="0 0 277.274 54.055" enable-background="new 0 0 277.274 54.055"
	 xml:space="preserve">
<text transform="matrix(1 0 0 1 30.1256 38.4016)" font-family="'Helvetica35-Thin'" font-size="35.3803">Add to My Oils</text>
<path fill="none" stroke="#799BD0" stroke-width="4" stroke-miterlimit="10" d="M275.274,27.027
	c0,13.822-11.205,25.028-25.028,25.028H27.027C13.205,52.055,2,40.85,2,27.027l0,0C2,13.205,13.205,2,27.027,2h223.219
	C264.069,2,275.274,13.205,275.274,27.027L275.274,27.027z"/>
</svg>
