<?xml version="1.0" encoding="utf-8"?>
<!-- Generator: Adobe Illustrator 17.0.0, SVG Export Plug-In . SVG Version: 6.00 Build 0)  -->
<!DOCTYPE svg PUBLIC "-//W3C//DTD SVG 1.1//EN" "http://www.w3.org/Graphics/SVG/1.1/DTD/svg11.dtd">
<svg version="1.1" id="Layer_1" xmlns="http://www.w3.org/2000/svg" xmlns:xlink="http://www.w3.org/1999/xlink" x="0px" y="0px"
	 width="37.753px" height="37.753px" viewBox="0 0 37.753 37.753" enable-background="new 0 0 37.753 37.753" xml:space="preserve">
<g>
	<circle fill="#799BD0" cx="18.876" cy="18.876" r="18.876"/>
</g>
<g>
	<path fill="#FFFFFF" d="M30.869,20.595H5.882c-0.949,0-1.719-0.77-1.719-1.719c0-0.95,0.77-1.719,1.719-1.719h24.987
		c0.949,0,1.719,0.77,1.719,1.719C32.589,19.826,31.819,20.595,30.869,20.595z"/>
</g>
<g>
	<path fill="#FFFFFF" d="M18.376,33.089c-0.949,0-1.719-0.77-1.719-1.719V6.383c0-0.95,0.77-1.719,1.719-1.719
		c0.949,0,1.719,0.77,1.719,1.719V31.37C20.095,32.32,19.325,33.089,18.376,33.089z"/>
</g>
</svg>
