<?xml version="1.0" encoding="utf-8"?>
<!-- Generator: Adobe Illustrator 17.0.0, SVG Export Plug-In . SVG Version: 6.00 Build 0)  -->
<!DOCTYPE svg PUBLIC "-//W3C//DTD SVG 1.1//EN" "http://www.w3.org/Graphics/SVG/1.1/DTD/svg11.dtd">
<svg version="1.1" id="Layer_1" xmlns="http://www.w3.org/2000/svg" xmlns:xlink="http://www.w3.org/1999/xlink" x="0px" y="0px"
	 width="120.378px" height="81.968px" viewBox="0 0 120.378 81.968" enable-background="new 0 0 120.378 81.968"
	 xml:space="preserve">
<g>
	<path fill="#FFFFFF" d="M115.878,81.968H4.5c-2.485,0-4.5-2.015-4.5-4.5V4.5C0,2.015,2.015,0,4.5,0h111.378
		c2.485,0,4.5,2.015,4.5,4.5v72.968C120.378,79.954,118.363,81.968,115.878,81.968z M9,72.968h102.378V9H9V72.968z"/>
</g>
<g>
	<path fill="#FFFFFF" d="M115.881,81.969c-1.714,0-3.351-0.983-4.103-2.646c-0.164-0.359-10.829-23.413-32.572-41.808
		c-1.897-1.605-2.135-4.445-0.529-6.342c1.604-1.899,4.446-2.133,6.342-0.529c23.416,19.81,34.499,43.952,34.96,44.97
		c1.023,2.265,0.018,4.93-2.246,5.954C117.131,81.84,116.5,81.969,115.881,81.969z"/>
</g>
<g>
	<path fill="#FFFFFF" d="M5.754,81.967c-0.621,0-1.252-0.129-1.854-0.402c-2.263-1.025-3.268-3.688-2.244-5.951
		c0.461-1.018,11.544-25.16,34.96-44.97c1.896-1.604,4.735-1.369,6.342,0.529c1.605,1.897,1.368,4.737-0.529,6.342
		C20.624,55.962,9.961,79.094,9.855,79.326C9.102,80.985,7.465,81.967,5.754,81.967z"/>
</g>
<g>
	<path fill="#FFFFFF" d="M60.188,53.592c-0.995,0-1.99-0.329-2.813-0.987L1.688,8.013c-1.94-1.554-2.254-4.385-0.7-6.325
		c1.554-1.94,4.386-2.253,6.325-0.7l52.876,42.34l52.877-42.34c1.94-1.553,4.772-1.24,6.325,0.7c1.554,1.94,1.24,4.772-0.7,6.325
		L63.001,52.604C62.18,53.263,61.184,53.592,60.188,53.592z"/>
</g>
</svg>
