<?xml version="1.0" encoding="utf-8"?>
<!-- Generator: Adobe Illustrator 17.0.0, SVG Export Plug-In . SVG Version: 6.00 Build 0)  -->
<!DOCTYPE svg PUBLIC "-//W3C//DTD SVG 1.1//EN" "http://www.w3.org/Graphics/SVG/1.1/DTD/svg11.dtd">
<svg version="1.1" id="Layer_1" xmlns="http://www.w3.org/2000/svg" xmlns:xlink="http://www.w3.org/1999/xlink" x="0px" y="0px"
	 width="292.123px" height="288.347px" viewBox="0 0 292.123 288.347" enable-background="new 0 0 292.123 288.347"
	 xml:space="preserve">
<path fill="#FFFFFF" d="M292.123,168.228c0-24.236-19.719-43.955-43.955-43.955c-24.238,0-43.957,19.719-43.957,43.955
	c0,16.941,9.646,31.647,23.724,38.978c-2.891,9.069-7.718,18.533-15.706,27.238c-11.907,12.979-29.573,19.559-52.507,19.559
	c-18.971,0-33.202-5.055-42.296-15.024c-8.932-9.79-11.871-22.952-12.789-32.108C111.579,199.56,116,188.047,116,174.826
	c0-1.697-0.091-3.399-0.249-5.098c15.759-10.509,29.38-29.748,40.178-57.066c11.984-30.318,17.305-62.472,17.305-69.576
	c0-26.764-34.638-35.504-41.581-36.984c-0.446-0.095-0.891-0.152-1.334-0.19c-2.64-2.716-6.086-4.704-10.063-5.539
	c-1.18-0.247-2.32-0.373-3.39-0.373c-10.108,0-12.162,9.777-13.678,16.979c-1.511,7.209-4.044,19.275,8.959,22.006
	c1.339,0.283,2.708,0.426,4.069,0.426c1.869,0,3.686-0.28,5.42-0.782c0.869,0.47,1.81,0.838,2.826,1.057
	c5.962,1.285,11.711,3.932,14.253,5.722c-0.923,8.146-5.542,31.603-14.526,54.345c-11.234,28.439-24.566,44.387-37.573,44.966
	c-13.006-0.579-26.339-16.527-37.573-44.966c-8.984-22.742-13.603-46.2-14.526-54.345c2.542-1.79,8.291-4.438,14.253-5.722
	c0.759-0.164,1.472-0.418,2.151-0.726c1.326,0.285,2.69,0.451,4.085,0.451c1.36,0,2.729-0.143,4.069-0.426
	c7.685-1.614,9.638-6.922,10.118-9.942c0.591-3.719-0.262-7.775-1.176-12.133C66.518,9.772,64.464,0,54.358,0
	c-1.069,0-2.209,0.126-3.39,0.373C46.79,1.251,43.212,3.41,40.525,6.338C31.718,8.369,0,17.468,0,43.086
	c0,7.105,5.321,39.258,17.305,69.576C28.133,140.057,41.8,159.33,57.617,169.82c-0.148,1.661-0.247,3.33-0.247,5.006
	c0,14.142,5.037,26.367,12.831,33.543c1.149,14.409,5.754,36.043,21.758,53.652c15.874,17.469,38.673,26.327,67.764,26.327
	c32.952,0,59.132-10.323,77.812-30.683c13.958-15.211,21.574-32.515,25.555-48.171C279.989,203.367,292.123,187.219,292.123,168.228
	z M114.353,28.483c-1.97-0.415-2.501-0.526-0.648-9.36c1.195-5.687,1.973-8.391,3.161-8.391c0.329,0,0.729,0.048,1.184,0.143
	c4.853,1.021,7.972,5.8,6.955,10.653c-0.872,4.142-4.568,7.15-8.789,7.15C115.596,28.678,114.97,28.611,114.353,28.483z
	 M53.174,10.875c0.455-0.094,0.855-0.143,1.184-0.143c1.186,0,1.962,2.704,3.169,8.448c0.662,3.153,1.348,6.414,1.067,8.179
	c-0.08,0.507-0.124,0.786-1.723,1.124c-0.616,0.128-1.243,0.195-1.864,0.195c-4.222,0-7.917-3.008-8.789-7.15
	C45.2,16.673,48.319,11.896,53.174,10.875z M10.732,43.086c0-13.298,14.699-20.627,24.594-24.062
	c-0.052,1.55,0.057,3.126,0.39,4.709c0.591,2.816,1.781,5.391,3.415,7.606c-7.879,2.821-15.52,7.316-15.52,11.747
	c0,12.951,20.2,111.218,63.005,112.372c42.805-1.154,63.005-99.421,63.005-112.372c0-4.736-8.727-9.55-17.147-12.31
	c1.431-2.087,2.49-4.459,3.033-7.043c0.381-1.817,0.479-3.626,0.358-5.393c9.757,3.093,26.635,10.5,26.635,24.746
	c0,10.058-19.1,123.214-75.128,125.23v0.048c-0.255,0-0.503-0.019-0.757-0.024c-0.253,0.005-0.502,0.024-0.757,0.024v-0.048
	C29.832,166.3,10.732,53.144,10.732,43.086z M84.343,178.989c0.496,0.071,1.002,0.107,1.517,0.107c0.257,0,0.51-0.007,0.763-0.017
	c0.268,0.011,0.508,0.017,0.75,0.017c0.519,0,1.03-0.037,1.529-0.108c5.636-0.326,11.091-1.574,16.35-3.692
	c-0.16,16.126-8.405,29.125-18.568,29.125c-10.152,0-18.389-12.97-18.566-29.07C73.339,177.437,78.752,178.666,84.343,178.989z
	 M229.626,250.408c-16.564,18.053-40.083,27.207-69.904,27.207c-25.938,0-46.066-7.675-59.821-22.813
	c-11.509-12.664-16.255-28.081-18.136-40.238c1.6,0.358,3.236,0.589,4.921,0.589c2.799,0,5.483-0.55,8.03-1.514
	c1.7,10.124,5.676,22.592,14.782,32.573c11.213,12.292,28.11,18.524,50.225,18.524c26.064,0,46.391-7.75,60.414-23.035
	c26.007-28.342,22.649-63.866,22.415-73.899c-0.118-5.074,2.665-7.407,5.698-7.407c2.964,0,6.167,2.228,7.135,6.302
	C257.342,174.94,259.419,217.94,229.626,250.408z M265.697,196.404c2.244-15.426,1.193-27.708,0.128-32.189
	c-2.036-8.569-9.264-14.554-17.577-14.554h-0.001c-4.387,0-8.47,1.707-11.498,4.806c-2.338,2.393-5.09,6.692-4.929,13.584
	c0.017,0.736,0.05,1.602,0.087,2.585c0.218,5.723,0.573,15.057-1.319,25.746c-9.384-5.875-15.646-16.289-15.646-28.154
	c0-18.319,14.904-33.223,33.225-33.223c18.319,0,33.223,14.904,33.223,33.223C281.391,180.113,275.108,190.538,265.697,196.404z"/>
</svg>
