<?xml version="1.0" encoding="utf-8"?>
<!-- Generator: Adobe Illustrator 17.0.0, SVG Export Plug-In . SVG Version: 6.00 Build 0)  -->
<!DOCTYPE svg PUBLIC "-//W3C//DTD SVG 1.1//EN" "http://www.w3.org/Graphics/SVG/1.1/DTD/svg11.dtd">
<svg version="1.1" id="Layer_1" xmlns="http://www.w3.org/2000/svg" xmlns:xlink="http://www.w3.org/1999/xlink" x="0px" y="0px"
	 width="62.294px" height="64.88px" viewBox="0 0 62.294 64.88" enable-background="new 0 0 62.294 64.88" xml:space="preserve">
<g>
	<g>
		<g>
			<g>
				<path fill="#965BA5" d="M21.878,42.759"/>
			</g>
		</g>
		<path fill="#56BD80" d="M0.343,5.202l3.994,8.241L2.135,14.51l2.463,5.082l2.205-1.069l8.115,16.744
			c1.081,2.231,2.195,2.769,3.008,3.162c0.475,0.23,0.675,0.336,0.832,0.662l0.998,2.06c0.091,0.188,0.25,0.321,0.433,0.385
			s0.39,0.057,0.578-0.034l2.172-1.053c0.376-0.182,0.533-0.635,0.351-1.01l-0.998-2.06c-0.158-0.325-0.118-0.548-0.003-1.063
			c0.195-0.882,0.462-2.089-0.619-4.32l-8.116-16.744l2.206-1.069L13.297,9.1l-2.202,1.067L7.101,1.926
			C6.279,0.229,4.237-0.48,2.54,0.343L1.926,0.64C0.229,1.463-0.48,3.505,0.343,5.202z M8.165,17.863l4.029-1.953l1.298,2.677
			l-1.625,0.788l0.264,0.544l1.625-0.788l2.507,5.173l-1.625,0.787l0.264,0.544l1.625-0.787l2.507,5.173l-1.625,0.788l0.264,0.544
			l1.625-0.788l1.012,2.088c0.852,1.758,0.666,2.595,0.503,3.334c-0.128,0.581-0.274,1.239,0.119,2.05l0.669,1.379l-0.811,0.393
			l-0.669-1.379c-0.393-0.811-1-1.105-1.535-1.364c-0.681-0.329-1.453-0.702-2.305-2.46L8.165,17.863z"/>
		<g>
			<g>
				<path fill="#56BD80" d="M22.689,49.092c-0.163-0.649-0.012-1.188,0.122-1.663c0.157-0.557,0.319-1.134,0.069-2.129l-0.272-1.084
					l1.107,0.15c2.077,0.281,4.011,2.013,4.353,3.374c0.373,1.483-0.531,2.993-2.014,3.365
					C24.571,51.478,23.061,50.575,22.689,49.092z M24.267,47.839c-0.116,0.411-0.173,0.637-0.111,0.884
					c0.169,0.674,0.856,1.085,1.53,0.915c0.674-0.169,1.085-0.856,0.915-1.53c-0.143-0.571-1.009-1.47-2.08-1.947
					C24.537,46.879,24.387,47.412,24.267,47.839z"/>
			</g>
		</g>
	</g>
	<g>
		<path fill="#56BD80" d="M62.271,46.814c-0.23-2.293-1.83-3.649-4.536-4.101c0.767-1.204,0.821-2.424,0.366-3.658
			c-0.576-1.562-2.156-2.863-4.096-2.885c-7.734-0.086-15.469-0.092-23.203-0.128c-0.223-0.001-0.446,0-0.821,0
			c1.075-0.702,2.013-1.327,2.966-1.935c1.755-1.12,2.654-2.927,2.2-4.914c-0.441-1.931-2.4-3.23-4.564-3.389
			c-1.181-0.087-2.25,0.069-3.277,0.545c-2.517,1.167-5.045,2.319-7.56,3.49c0.532,0.621,0.784,1.457,0.761,2.283
			c0.427-0.214,0.853-0.428,1.279-0.643c1.247-0.63,2.526-1.215,3.816-1.781c1.267-0.556,2.521-1.17,3.861-1.558
			c1.315-0.38,2.748,0.427,3.025,1.523c0.293,1.162-0.309,1.981-1.274,2.626c-1.988,1.329-4.035,2.594-6.061,3.882
			c-0.65,0.414-0.859,1.175-0.417,1.725c0.354,0.44,0.918,0.509,1.499,0.509c8.845,0,17.691,0,26.536,0
			c0.212,0,0.425-0.015,0.635,0.003c1.03,0.089,1.715,0.548,2.086,1.373c0.351,0.781,0.194,1.469-0.412,2.113
			c-0.588,0.625-1.389,0.815-2.275,0.816c-5.396,0.005-10.792,0.003-16.188,0.003c-0.148,0-0.297-0.009-0.444,0.002
			c-0.978,0.073-1.561,0.854-1.156,1.595c0.275,0.504,0.807,0.663,1.445,0.662c6.75-0.006,13.501-0.003,20.251-0.005
			c0.756,0,1.444,0.187,2.018,0.59c0.779,0.548,1.021,1.553,0.644,2.43c-0.298,0.694-1.366,1.288-2.335,1.288
			c-6.751,0.001-13.501,0.001-20.252,0.001c-0.148,0-0.297-0.008-0.444,0.002c-0.948,0.065-1.656,0.491-1.342,1.565
			c0.155,0.53,0.692,0.796,1.629,0.796c5.989,0.001,11.977-0.006,17.966,0.005c1.507,0.003,2.161,0.72,2.355,1.712
			c0.234,1.2-0.445,2.111-1.711,2.342c-0.79,0.144-1.61,0.235-2.417,0.239c-4.74,0.022-9.48,0.011-14.22,0.011
			c-1.227,0-2.455-0.01-3.682,0.005c-0.517,0.006-0.985,0.113-1.193,0.601c-0.392,0.921,0.226,1.648,1.429,1.649
			c3.873,0.003,7.745-0.016,11.617,0.016c0.776,0.007,1.566,0.152,2.32,0.327c0.863,0.201,1.39,0.865,1.386,1.696
			c-0.003,0.761-0.158,1.526-1.146,1.827c-0.691,0.21-1.432,0.417-2.152,0.423c-4.549,0.038-9.099,0.019-13.649,0.019
			c-4.19,0-8.38,0.014-12.57-0.01c-1.063-0.006-2.131-0.089-3.185-0.212c-2.884-0.335-5.531-1.157-7.825-2.742
			c-1.742-1.204-3.004-2.674-3.783-4.449c-0.858-1.955-1.171-3.98-1.008-6.056c0.104-1.324,0.193-2.652,0.389-3.968
			c0.264-1.764,1.013-3.392,2.146-4.894c1.171-1.554,2.76-2.788,4.534-3.774c1.105-0.615,2.229-1.206,3.358-1.791
			c-0.702-0.522-1.098-1.341-1.192-2.199c-1.179,0.61-2.34,1.247-3.476,1.911c-2.737,1.6-5.118,3.513-6.564,6.114
			c-0.833,1.498-1.409,3.079-1.593,4.731c-0.191,1.712-0.391,3.435-0.367,5.151c0.044,3.232,0.989,6.275,3.316,8.902
			c1.225,1.383,2.784,2.481,4.557,3.355c2.252,1.111,4.706,1.718,7.252,2.06c1.153,0.155,2.333,0.222,3.502,0.224
			c8.462,0.018,16.924,0.031,25.386-0.008c1.712-0.008,3.444-0.126,4.926-1.062c1.174-0.742,1.779-1.726,1.797-2.925
			c0.014-0.883-0.176-1.768-0.277-2.669c1.279,0.059,2.624-0.086,3.937-0.516c1.621-0.53,2.819-1.932,2.843-3.397
			c0.017-1.012,0.024-2.015-0.64-2.958C61.254,50.419,62.483,48.927,62.271,46.814z"/>
	</g>
</g>
</svg>
