<?xml version="1.0" encoding="utf-8"?>
<!-- Generator: Adobe Illustrator 17.0.0, SVG Export Plug-In . SVG Version: 6.00 Build 0)  -->
<!DOCTYPE svg PUBLIC "-//W3C//DTD SVG 1.1//EN" "http://www.w3.org/Graphics/SVG/1.1/DTD/svg11.dtd">
<svg version="1.1" id="Layer_1" xmlns="http://www.w3.org/2000/svg" xmlns:xlink="http://www.w3.org/1999/xlink" x="0px" y="0px"
	 width="67.842px" height="67.842px" viewBox="0 0 67.842 67.842" enable-background="new 0 0 67.842 67.842" xml:space="preserve">
<g>
	<g>
		<g>
			<path fill="#7F8C8D" d="M33.921,0C15.217,0,0,15.217,0,33.921C0,43,3.585,51.256,9.414,57.35
				c0.067,0.084,0.138,0.166,0.216,0.244c0.061,0.061,0.125,0.117,0.189,0.171c6.152,6.218,14.685,10.077,24.102,10.077
				c18.704,0,33.921-15.217,33.921-33.921C67.842,15.217,52.625,0,33.921,0z M33.921,5.708c6.595,0,12.668,2.275,17.477,6.081
				L11.789,51.398c-3.806-4.809-6.081-10.882-6.081-17.477C5.708,18.364,18.364,5.708,33.921,5.708z M33.921,62.134
				c-6.91,0-13.247-2.499-18.157-6.638l39.732-39.732c4.139,4.911,6.638,11.247,6.638,18.157
				C62.134,49.478,49.478,62.134,33.921,62.134z"/>
		</g>
	</g>
	<g>
		<g>
			<path fill="#7F8C8D" d="M19.112,35.59c-0.514,0-1.013-0.271-1.281-0.752c-0.744-1.337-1.138-2.855-1.138-4.39
				c0-4.984,4.055-9.038,9.038-9.038c3.86,0,7.295,2.453,8.548,6.103c0.263,0.765-0.144,1.598-0.909,1.86
				c-0.763,0.263-1.598-0.144-1.86-0.909c-0.848-2.468-3.17-4.126-5.779-4.126c-3.369,0-6.11,2.741-6.11,6.11
				c0,1.037,0.265,2.063,0.768,2.966c0.393,0.707,0.139,1.598-0.567,1.992C19.598,35.53,19.353,35.59,19.112,35.59z"/>
		</g>
	</g>
	<g>
		<g>
			<path fill="#7F8C8D" d="M25.732,20.492c-0.809,0-1.464-0.655-1.464-1.464v-4.345c0-0.809,0.655-1.464,1.464-1.464
				s1.464,0.655,1.464,1.464v4.345C27.196,19.836,26.541,20.492,25.732,20.492z"/>
		</g>
	</g>
	<g>
		<g>
			<path fill="#7F8C8D" d="M14.623,32.028H9.851c-0.809,0-1.464-0.655-1.464-1.464c0-0.809,0.655-1.464,1.464-1.464h4.772
				c0.809,0,1.464,0.655,1.464,1.464C16.087,31.373,15.432,32.028,14.623,32.028z"/>
		</g>
	</g>
	<g>
		<g>
			<path fill="#7F8C8D" d="M17.234,23.53c-0.375,0-0.749-0.143-1.035-0.429l-3.073-3.072c-0.572-0.572-0.572-1.499,0-2.071
				c0.571-0.572,1.499-0.572,2.071,0l3.073,3.072c0.572,0.572,0.572,1.499,0,2.071C17.984,23.387,17.608,23.53,17.234,23.53z"/>
		</g>
	</g>
	<g>
		<g>
			<path fill="#7F8C8D" d="M34.24,24.017c-0.375,0-0.749-0.143-1.035-0.429c-0.572-0.572-0.572-1.499,0-2.071l3.185-3.184
				c0.572-0.572,1.499-0.572,2.07,0c0.572,0.572,0.572,1.499,0,2.071l-3.185,3.184C34.989,23.874,34.614,24.017,34.24,24.017z"/>
		</g>
	</g>
	<g>
		<g>
			<path fill="#7F8C8D" d="M55.411,44.417H14.766c-0.6,0-1.139-0.366-1.361-0.924c-0.353-0.889-0.532-1.821-0.532-2.771
				c0-4.446,3.928-8.064,8.757-8.064c0.758,0,1.501,0.088,2.221,0.262c1.983-3.841,6.208-6.336,10.943-6.336
				c4.02,0,7.735,1.816,9.981,4.81c1.002-0.315,2.05-0.474,3.127-0.474c5.358,0,9.717,4.007,9.717,8.933
				c0,1.309-0.303,2.574-0.901,3.759C56.469,44.106,55.964,44.417,55.411,44.417z M15.866,41.488h38.569
				c0.17-0.53,0.257-1.077,0.257-1.636c0-3.311-3.045-6.004-6.789-6.004c-1.086,0-2.127,0.222-3.091,0.661
				c-0.681,0.309-1.489,0.055-1.869-0.593c-1.593-2.717-4.715-4.405-8.148-4.405c-4.019,0-7.536,2.291-8.753,5.7
				c-0.135,0.378-0.419,0.684-0.785,0.846c-0.366,0.163-0.783,0.168-1.154,0.014c-0.778-0.323-1.61-0.486-2.472-0.486
				c-3.214,0-5.828,2.304-5.828,5.136C15.801,40.98,15.823,41.236,15.866,41.488z"/>
		</g>
	</g>
</g>
</svg>
