<?xml version="1.0" encoding="utf-8"?>
<!-- Generator: Adobe Illustrator 17.0.0, SVG Export Plug-In . SVG Version: 6.00 Build 0)  -->
<!DOCTYPE svg PUBLIC "-//W3C//DTD SVG 1.1//EN" "http://www.w3.org/Graphics/SVG/1.1/DTD/svg11.dtd">
<svg version="1.1" id="Layer_1" xmlns="http://www.w3.org/2000/svg" xmlns:xlink="http://www.w3.org/1999/xlink" x="0px" y="0px"
	 width="67.842px" height="67.842px" viewBox="0 0 67.842 67.842" enable-background="new 0 0 67.842 67.842" xml:space="preserve">
<g>
	<g>
		<g>
			<path fill="#7F8C8D" d="M33.921,0C15.217,0,0,15.217,0,33.921C0,43,3.585,51.256,9.414,57.35
				c0.067,0.084,0.138,0.166,0.216,0.244c0.061,0.061,0.125,0.117,0.189,0.171c6.152,6.218,14.685,10.077,24.102,10.077
				c18.704,0,33.921-15.217,33.921-33.921C67.842,15.217,52.625,0,33.921,0z M11.789,51.398c-3.806-4.809-6.081-10.882-6.081-17.477
				c0-15.557,12.656-28.213,28.213-28.213c6.595,0,12.668,2.275,17.477,6.081c1.74,1.273,4.098,3.975,4.098,3.975
				c4.139,4.911,6.638,11.247,6.638,18.157c0,15.557-12.656,28.213-28.213,28.213c-6.91,0-13.247-2.499-18.157-6.638
				C13.672,53.894,11.789,51.398,11.789,51.398z"/>
		</g>
	</g>
</g>
<g>
	<path fill="none" stroke="#7F8C8D" stroke-width="3" stroke-linecap="round" stroke-linejoin="round" stroke-miterlimit="10" d="
		M48.662,42.036c0,6.716-5.444,12.16-12.16,12.16s-12.16-5.444-12.16-12.16s12.16-23.958,12.16-23.958S48.662,35.32,48.662,42.036z"
		/>
	<path fill="none" stroke="#7F8C8D" stroke-width="2" stroke-linecap="round" stroke-linejoin="round" stroke-miterlimit="10" d="
		M28.108,22.313c0,2.465-1.999,4.464-4.464,4.464s-4.464-1.999-4.464-4.464s4.464-8.795,4.464-8.795S28.108,19.848,28.108,22.313z"
		/>
	<g>
		<polygon fill="#7F8C8D" points="43.196,39.344 38.154,39.344 38.154,34.301 34.85,34.301 34.85,39.344 29.808,39.344 
			29.808,42.647 34.85,42.647 34.85,47.69 38.154,47.69 38.154,42.647 43.196,42.647 		"/>
	</g>
</g>
</svg>
