<?xml version="1.0" encoding="utf-8"?>
<!-- Generator: Adobe Illustrator 17.0.0, SVG Export Plug-In . SVG Version: 6.00 Build 0)  -->
<!DOCTYPE svg PUBLIC "-//W3C//DTD SVG 1.1//EN" "http://www.w3.org/Graphics/SVG/1.1/DTD/svg11.dtd">
<svg version="1.1" id="Layer_1" xmlns="http://www.w3.org/2000/svg" xmlns:xlink="http://www.w3.org/1999/xlink" x="0px" y="0px"
	 width="43.459px" height="83.488px" viewBox="0 0 43.459 83.488" enable-background="new 0 0 43.459 83.488" xml:space="preserve">
<g>
	<g>
		<g>
			<g>
				<path fill="#7F8C8D" d="M11.192,59.71H8.07c-0.691,0-1.252-0.56-1.252-1.252v-2.961c0-0.373-0.129-0.554-0.537-1.07
					c-0.749-0.948-1.776-2.246-1.776-5.547V23.929h2.503v24.953c0,2.431,0.628,3.226,1.236,3.994
					c0.48,0.607,1.077,1.362,1.077,2.623v1.709H9.94v-1.709c0-1.261,0.597-2.016,1.077-2.623c0.608-0.768,1.236-1.563,1.236-3.994
					V23.929h2.503v24.953c0,3.301-1.026,4.599-1.776,5.547c-0.408,0.516-0.537,0.696-0.537,1.07v2.961
					C12.444,59.15,11.883,59.71,11.192,59.71z"/>
			</g>
		</g>
		<g>
			<g>
				<line fill="#7F8C8D" x1="13.688" y1="45.489" x2="10.191" y2="45.489"/>
			</g>
			<g>
				<rect x="10.191" y="44.988" fill="#7F8C8D" width="3.497" height="1.001"/>
			</g>
		</g>
		<g>
			<g>
				<line fill="#7F8C8D" x1="13.688" y1="37.272" x2="10.191" y2="37.272"/>
			</g>
			<g>
				<rect x="10.191" y="36.771" fill="#7F8C8D" width="3.497" height="1.001"/>
			</g>
		</g>
		<g>
			<g>
				<line fill="#7F8C8D" x1="13.688" y1="29.055" x2="10.191" y2="29.055"/>
			</g>
			<g>
				<rect x="10.191" y="28.554" fill="#7F8C8D" width="3.497" height="1.001"/>
			</g>
		</g>
		<g>
			<g>
				<path fill="#7F8C8D" d="M18.904,26.067H0.358V16.26h3.165V5.667C3.523,2.542,6.065,0,9.189,0h0.883
					c3.125,0,5.667,2.542,5.667,5.667V16.26h3.165V26.067z M2.861,23.564h13.54v-4.801h-3.165V5.667
					c0-1.744-1.419-3.164-3.164-3.164H9.189c-1.744,0-3.164,1.419-3.164,3.164v13.097H2.861V23.564z"/>
			</g>
		</g>
		<g>
			<g>
				<path fill="#7F8C8D" d="M11.907,68.29c0,1.257-1.019,2.276-2.276,2.276s-2.276-1.019-2.276-2.276s2.276-5.426,2.276-5.426
					S11.907,67.033,11.907,68.29z"/>
			</g>
			<g>
				<path fill="#7F8C8D" d="M9.631,71.567c-1.807,0-3.277-1.47-3.277-3.277c0-1.403,1.836-4.875,2.398-5.905l0.879-1.61l0.879,1.61
					c0.562,1.031,2.398,4.502,2.398,5.905C12.908,70.097,11.438,71.567,9.631,71.567z M9.631,65.048
					c-0.705,1.443-1.275,2.815-1.275,3.243c0,0.703,0.572,1.275,1.275,1.275c0.703,0,1.275-0.572,1.275-1.275
					C10.906,67.862,10.336,66.491,9.631,65.048z"/>
			</g>
		</g>
	</g>
	<g>
		<g>
			<g>
				<path fill="#7F8C8D" d="M33.249,59.71h-3.122c-0.691,0-1.252-0.56-1.252-1.252v-2.961c0-0.373-0.129-0.554-0.537-1.07
					c-0.749-0.948-1.776-2.246-1.776-5.547v-27.89c0-0.642,0.485-1.179,1.124-1.245c2.46-0.253,4.945-0.272,7.349-0.291l0.515-0.004
					c0.339,0.003,0.655,0.128,0.892,0.363c0.237,0.235,0.37,0.555,0.37,0.889v28.178c0,3.301-1.026,4.599-1.776,5.547
					c-0.408,0.516-0.537,0.697-0.537,1.07v2.961C34.5,59.15,33.94,59.71,33.249,59.71z M31.378,57.207h0.618v-1.709
					c0-1.261,0.597-2.016,1.077-2.623c0.608-0.768,1.236-1.563,1.236-3.994V21.965c-1.736,0.015-3.505,0.044-5.244,0.173v26.743
					c0,2.431,0.628,3.226,1.236,3.994c0.48,0.606,1.077,1.361,1.077,2.623V57.207z"/>
			</g>
		</g>
		<g>
			<g>
				<line fill="#7F8C8D" x1="35.745" y1="45.489" x2="32.248" y2="45.489"/>
			</g>
			<g>
				<rect x="32.248" y="44.988" fill="#7F8C8D" width="3.497" height="1.001"/>
			</g>
		</g>
		<g>
			<g>
				<line fill="#7F8C8D" x1="35.745" y1="37.272" x2="32.248" y2="37.272"/>
			</g>
			<g>
				<rect x="32.248" y="36.771" fill="#7F8C8D" width="3.497" height="1.001"/>
			</g>
		</g>
		<g>
			<g>
				<line fill="#7F8C8D" x1="35.745" y1="29.055" x2="32.248" y2="29.055"/>
			</g>
			<g>
				<rect x="32.248" y="28.554" fill="#7F8C8D" width="3.497" height="1.001"/>
			</g>
		</g>
		<g>
			<g>
				<rect x="23.666" y="17.512" fill="#7F8C8D" width="16.043" height="7.304"/>
			</g>
		</g>
		<g>
			<g>
				<path fill="#7F8C8D" d="M26.831,18.705c0,2.439,1.977,4.415,4.415,4.415h0.883c2.439,0,4.415-1.977,4.415-4.415V5.667
					c0-2.439-1.977-4.415-4.415-4.415h-0.883c-2.439,0-4.415,1.977-4.415,4.415V18.705z"/>
			</g>
		</g>
		<g>
			<g>
				<path fill="#7F8C8D" d="M31.688,71.818c-1.945,0-3.527-1.582-3.527-3.527c0-1.423,1.698-4.688,2.429-6.025l1.099-2.012
					l1.099,2.012c0.73,1.338,2.429,4.603,2.429,6.025C35.215,70.235,33.633,71.818,31.688,71.818z M31.687,65.626
					c-0.572,1.207-1.008,2.287-1.023,2.668c0,0.56,0.46,1.02,1.024,1.02c0.565,0,1.024-0.46,1.024-1.024
					C32.697,67.919,32.256,66.83,31.687,65.626z"/>
			</g>
		</g>
	</g>
	<g>
		<g>
			<path fill="#7F8C8D" d="M21.73,83.488c-5.537,0-10.752-0.362-14.687-1.019C2.106,81.644,0,80.552,0,78.815
				c0-1.736,2.106-2.829,7.043-3.653c3.934-0.657,9.15-1.019,14.687-1.019s10.752,0.362,14.686,1.019
				c4.937,0.825,7.043,1.917,7.043,3.653c0,1.736-2.106,2.829-7.043,3.654C32.482,83.126,27.267,83.488,21.73,83.488z M2.902,78.815
				c1.842,0.882,8.226,2.17,18.828,2.17s16.985-1.288,18.827-2.17c-1.842-0.882-8.226-2.169-18.827-2.169S4.744,77.934,2.902,78.815
				z"/>
		</g>
	</g>
	<g>
		<g>
			<path fill="#7F8C8D" d="M21.729,82.737c-0.233,0-0.442-0.164-0.49-0.401c-0.055-0.271,0.12-0.535,0.391-0.59
				c2.267-0.461,2.837-0.832,2.975-0.963c-0.345-0.422-2.354-1.074-3.575-1.47c-2.785-0.904-4.358-1.465-4.297-2.485
				c0.048-0.823,1.161-1.362,3.967-1.92c0.275-0.054,0.535,0.122,0.589,0.393c0.054,0.271-0.122,0.535-0.393,0.589
				c-2.403,0.478-2.995,0.863-3.135,0.997c0.343,0.423,2.356,1.076,3.579,1.473c2.781,0.902,4.352,1.463,4.294,2.48
				c-0.046,0.81-1.113,1.339-3.804,1.887C21.796,82.734,21.763,82.737,21.729,82.737z"/>
		</g>
	</g>
</g>
</svg>
