<?xml version="1.0" encoding="utf-8"?>
<!-- Generator: Adobe Illustrator 17.0.0, SVG Export Plug-In . SVG Version: 6.00 Build 0)  -->
<!DOCTYPE svg PUBLIC "-//W3C//DTD SVG 1.1//EN" "http://www.w3.org/Graphics/SVG/1.1/DTD/svg11.dtd">
<svg version="1.1" id="Layer_1" xmlns="http://www.w3.org/2000/svg" xmlns:xlink="http://www.w3.org/1999/xlink" x="0px" y="0px"
	 width="67.842px" height="67.842px" viewBox="0 0 67.842 67.842" enable-background="new 0 0 67.842 67.842" xml:space="preserve">
<g>
	<g>
		<g>
			<path fill="#7F8C8D" d="M33.921,0C15.217,0,0,15.217,0,33.921C0,43,3.585,51.256,9.414,57.35
				c0.067,0.084,0.138,0.166,0.216,0.244c0.061,0.061,0.125,0.117,0.189,0.171c6.152,6.218,14.685,10.077,24.102,10.077
				c18.704,0,33.921-15.217,33.921-33.921C67.842,15.217,52.625,0,33.921,0z M11.789,51.398c-3.806-4.809-6.081-10.882-6.081-17.477
				c0-15.557,12.656-28.213,28.213-28.213c6.595,0,12.668,2.275,17.477,6.081c1.74,1.273,4.098,3.975,4.098,3.975
				c4.139,4.911,6.638,11.247,6.638,18.157c0,15.557-12.656,28.213-28.213,28.213c-6.91,0-13.247-2.499-18.157-6.638
				C13.672,53.894,11.789,51.398,11.789,51.398z"/>
		</g>
	</g>
</g>
<g>
	
		<path fill="#7F8C8D" stroke="#7F8C8D" stroke-width="2" stroke-linecap="round" stroke-linejoin="round" stroke-miterlimit="10" d="
		M13.912,36.443c-2.047,4.151-0.34,9.175,3.811,11.222c4.151,2.047,9.175,0.34,11.222-3.811l3.766-7.639l-15.033-7.411
		L13.912,36.443z"/>
	<path fill="none" stroke="#7F8C8D" stroke-width="2" stroke-linecap="round" stroke-linejoin="round" stroke-miterlimit="10" d="
		M37.838,25.599c2.047-4.151,0.46-9.45-3.691-11.497s-9.175-0.34-11.222,3.811l-3.766,7.639l14.758,7.686L37.838,25.599z"/>
</g>
<g>
	<path fill="#7F8C8D" d="M36.843,45.72c2.585,4.1,7.725,5.597,12.043,3.748l-10.234-16.23C35.123,36.338,34.258,41.62,36.843,45.72z
		"/>
	<path fill="#7F8C8D" d="M53.299,35.344c-2.585-4.1-7.725-5.597-12.043-3.748l10.234,16.23
		C55.019,44.726,55.884,39.444,53.299,35.344z"/>
</g>
<g>
	<path fill="#FFFFFF" d="M20.409,31.594c0,0-0.355,0.915-0.888,2.287c-0.266,0.686-0.577,1.486-0.91,2.344
		c-0.083,0.214-0.168,0.432-0.254,0.653l-0.129,0.333l-0.033,0.084l-0.016,0.042l-0.004,0.01c-0.01,0.023,0.078-0.179,0.04-0.091
		l-0.002,0.005l-0.006,0.022l-0.048,0.174c-0.103,0.442-0.334,1.004-0.265,1.307c0.001,0.175-0.005,0.345-0.017,0.511l0.09,0.57
		c0.014,0.379,0.205,0.718,0.303,1.049c0.122,0.328,0.349,0.596,0.484,0.873c0.206,0.232,0.401,0.451,0.581,0.653
		c0.213,0.158,0.408,0.302,0.581,0.43c0.15,0.15,0.359,0.177,0.485,0.255c0.268,0.13,0.421,0.204,0.421,0.204l0.255,0.124
		c0.937,0.455,1.328,1.584,0.873,2.521c-0.455,0.937-1.584,1.328-2.521,0.873c-0.09-0.044-0.184-0.1-0.264-0.156
		c0,0-0.261-0.185-0.719-0.508c-0.214-0.179-0.521-0.33-0.77-0.632c-0.264-0.282-0.564-0.597-0.862-0.954
		c-0.249-0.398-0.523-0.825-0.772-1.288c-0.176-0.5-0.419-1.004-0.527-1.561c-0.084-0.564-0.231-1.13-0.173-1.724
		c0.012-0.292,0.025-0.586,0.038-0.882c0.064-0.315,0.135-0.628,0.212-0.935c0.134-0.685,0.387-1.002,0.584-1.471l0.078-0.163
		l0.01-0.02l0.047-0.106l0.006-0.01l0.023-0.038l0.047-0.077l0.185-0.305c0.123-0.202,0.244-0.402,0.364-0.599
		c0.477-0.786,0.923-1.52,1.305-2.149c0.764-1.258,1.273-2.097,1.273-2.097c0.144-0.237,0.453-0.312,0.69-0.169
		C20.413,31.111,20.496,31.371,20.409,31.594z"/>
</g>
</svg>
