<?xml version="1.0" encoding="utf-8"?>
<!-- Generator: Adobe Illustrator 17.0.0, SVG Export Plug-In . SVG Version: 6.00 Build 0)  -->
<!DOCTYPE svg PUBLIC "-//W3C//DTD SVG 1.1//EN" "http://www.w3.org/Graphics/SVG/1.1/DTD/svg11.dtd">
<svg version="1.1" id="Layer_1" xmlns="http://www.w3.org/2000/svg" xmlns:xlink="http://www.w3.org/1999/xlink" x="0px" y="0px"
	 width="67.842px" height="67.842px" viewBox="0 0 67.842 67.842" enable-background="new 0 0 67.842 67.842" xml:space="preserve">
<g>
	<g>
		<g>
			<path fill="#7F8C8D" d="M33.921,0C15.217,0,0,15.217,0,33.921C0,43,3.585,51.256,9.414,57.35
				c0.067,0.084,0.138,0.166,0.216,0.244c0.061,0.061,0.125,0.117,0.189,0.171c6.152,6.218,14.685,10.077,24.102,10.077
				c18.704,0,33.921-15.217,33.921-33.921C67.842,15.217,52.625,0,33.921,0z M11.789,51.398c-3.806-4.809-6.081-10.882-6.081-17.477
				c0-15.557,12.656-28.213,28.213-28.213c6.595,0,12.668,2.275,17.477,6.081c1.74,1.273,4.098,3.975,4.098,3.975
				c4.139,4.911,6.638,11.247,6.638,18.157c0,15.557-12.656,28.213-28.213,28.213c-6.91,0-13.247-2.499-18.157-6.638
				C13.672,53.894,11.789,51.398,11.789,51.398z"/>
		</g>
	</g>
</g>
<g>
	<g>
		<g>
			<g>
				<g>
					<path fill="#7F8C8D" d="M45.415,25.98c0.033-0.568,0.293-0.966,0.522-1.317c0.269-0.412,0.547-0.838,0.598-1.709l0.055-0.948
						l0.86,0.403c1.613,0.756,2.741,2.653,2.672,3.843c-0.075,1.297-1.192,2.292-2.489,2.217
						C46.334,28.394,45.34,27.277,45.415,25.98z M47.013,25.366c-0.198,0.304-0.302,0.472-0.315,0.688
						c-0.034,0.59,0.418,1.097,1.008,1.131c0.59,0.034,1.097-0.418,1.131-1.008c0.029-0.499-0.445-1.448-1.191-2.108
						C47.477,24.656,47.219,25.05,47.013,25.366z"/>
				</g>
			</g>
		</g>
	</g>
	<g>
		<g>
			<path fill="#7F8C8D" d="M19.548,31.151c0.371-1.128,0.788-2.248,1.223-3.363c0.427-1.095,0.812-2.218,1.384-3.256
				c0.562-1.018,1.908-1.395,2.733-0.902c0.875,0.522,1.005,1.376,0.813,2.344c-0.396,1.993-0.866,3.984-1.309,5.975
				c-0.142,0.639,0.19,1.223,0.786,1.287c0.477,0.052,0.857-0.246,1.207-0.595c3.388-3.388,6.776-6.776,10.164-10.165l-1.39-1.39
				c-2.484,2.462-4.964,4.928-7.449,7.39c-0.135,0.133-0.268,0.268-0.494,0.493c0.224-1.068,0.412-2.007,0.62-2.945
				c0.381-1.728-0.164-3.354-1.631-4.275c-1.426-0.895-3.383-0.499-4.779,0.706c-0.762,0.657-1.311,1.394-1.642,2.297
				c-0.811,2.214-1.638,4.425-2.446,6.64c0.693,0.053,1.346,0.404,1.829,0.915C19.293,31.921,19.421,31.536,19.548,31.151z"/>
		</g>
		<g>
			<path fill="#7F8C8D" d="M47.698,40.289c-1.921,1.93-0.518,0.524-2.443,2.449c-2.518,2.518-5.027,5.044-7.559,7.548
				c-0.642,0.635-1.334,1.227-2.041,1.787c-1.935,1.532-4.019,2.628-6.349,3.055c-1.77,0.324-3.412,0.198-4.947-0.4
				c-1.691-0.659-3.095-1.688-4.245-3.033c-0.733-0.858-1.478-1.71-2.15-2.618c-0.901-1.218-1.429-2.647-1.651-4.23
				c-0.23-1.637-0.017-3.334,0.456-4.992c0.295-1.034,0.615-2.064,0.942-3.094c-0.735,0.108-1.319-0.292-1.891-0.751
				c-0.342,1.075-0.803,2.302-1.087,3.383c-0.683,2.607-0.965,5.186-0.271,7.618c0.4,1.401,1.003,2.697,1.885,3.8
				c0.914,1.144,1.829,2.299,2.874,3.316c1.969,1.916,4.365,3.176,7.341,3.357c1.567,0.095,3.164-0.182,4.755-0.722
				c2.021-0.685,3.86-1.795,5.595-3.12c0.786-0.6,1.535-1.269,2.239-1.969c4.441-4.422,5.546-5.52,9.964-9.965L47.698,40.289z"/>
		</g>
	</g>
	<g>
		<path fill="#7F8C8D" d="M44.959,32.472c-0.766-0.766-1.775-1.14-2.78-1.129c0.01-1.006-0.363-2.014-1.13-2.78
			c-1.471-1.471-3.836-1.509-5.359-0.121l1.39,1.39c0.607-0.479,1.757-0.178,2.317,0.382c0.56,0.56,0.593,1.442,0.114,2.049
			l0.088,0.088l1.57,1.57l0.088,0.088c0.607-0.479,1.489-0.446,2.049,0.114c0.56,0.56,0.593,1.442,0.114,2.049l0.142,0.142
			l1.516,1.516l0.142,0.142c0.607-0.479,1.489-0.446,2.049,0.114c0.56,0.56,0.826,1.675,0.347,2.282l1.425,1.425
			c1.388-1.522,1.351-3.887-0.121-5.359c-0.78-0.78-1.812-1.153-2.836-1.128C46.112,34.284,45.739,33.253,44.959,32.472z"/>
	</g>
	<g>
		<circle fill="#7F8C8D" cx="44.431" cy="36.959" r="1.297"/>
	</g>
	<g>
		<circle fill="#7F8C8D" cx="40.532" cy="32.963" r="1.243"/>
	</g>
	<g>
		<path fill="#7F8C8D" d="M25.55,33.14c-0.274,0-0.548-0.105-0.757-0.314c-0.418-0.418-0.418-1.096,0-1.514l16.304-16.304
			c1.511-1.511,3.97-1.511,5.482,0c1.511,1.511,1.511,3.971,0,5.482L36.271,30.799c-0.418,0.418-1.096,0.418-1.514,0
			c-0.418-0.418-0.418-1.096,0-1.514l10.308-10.308c0.676-0.677,0.676-1.778,0-2.454c-0.677-0.677-1.778-0.677-2.454,0
			L26.307,32.826C26.098,33.035,25.824,33.14,25.55,33.14z"/>
	</g>
	<g>
		<path fill="#7F8C8D" d="M15.645,41.101c-0.106,0-0.215-0.016-0.321-0.049c-0.564-0.177-0.878-0.778-0.7-1.342
			c0.676-2.154,1.189-3.695,1.685-5.186c0.493-1.482,1.003-3.015,1.674-5.152c0.177-0.564,0.778-0.878,1.342-0.701
			c0.564,0.177,0.878,0.778,0.7,1.342c-0.676,2.154-1.189,3.695-1.685,5.186c-0.493,1.482-1.003,3.015-1.674,5.152
			C16.522,40.808,16.1,41.101,15.645,41.101z"/>
	</g>
</g>
</svg>
