<?xml version="1.0" encoding="utf-8"?>
<!-- Generator: Adobe Illustrator 17.0.0, SVG Export Plug-In . SVG Version: 6.00 Build 0)  -->
<!DOCTYPE svg PUBLIC "-//W3C//DTD SVG 1.1//EN" "http://www.w3.org/Graphics/SVG/1.1/DTD/svg11.dtd">
<svg version="1.1" id="Layer_1" xmlns="http://www.w3.org/2000/svg" xmlns:xlink="http://www.w3.org/1999/xlink" x="0px" y="0px"
	 width="41.07px" height="58.016px" viewBox="0 0 41.07 58.016" enable-background="new 0 0 41.07 58.016" xml:space="preserve">
<g>
	<g>
		<g>
			<path fill="#FFFFFF" d="M37.074,13.56v37.463c0,2.758-2.236,4.993-4.993,4.993H8.989c-2.758,0-4.993-2.235-4.993-4.993V13.56
				H37.074 M39.074,11.56h-2H3.996h-2v2v37.463c0,3.856,3.137,6.993,6.993,6.993h23.092c3.856,0,6.993-3.137,6.993-6.993V13.56
				V11.56L39.074,11.56z"/>
		</g>
		<g>
			<path fill="#FFFFFF" d="M23.794,2c1.568,0,2.844,1.276,2.844,2.844v1.119h6.836c3.091,0,5.596,2.236,5.596,4.993v0.583H2v-0.583
				c0-2.758,2.505-4.993,5.596-4.993h6.836V4.844C14.432,3.276,15.708,2,17.276,2H23.794 M16.128,5.963h8.813V4.844
				c0-0.633-0.515-1.148-1.147-1.148h-6.518c-0.633,0-1.147,0.515-1.147,1.148V5.963 M23.794,0h-6.518
				c-2.37,0-4.348,1.711-4.763,3.963H7.596C3.407,3.963,0,7.1,0,10.956v0.583v2h2h37.07h2v-2v-0.583
				c0-3.856-3.407-6.993-7.596-6.993h-4.917C28.142,1.711,26.164,0,23.794,0L23.794,0z"/>
		</g>
	</g>
	<g>
		<g>
			<g>
				<path fill="#FFFFFF" d="M8.985,52.692c-0.689,0-1.247-0.558-1.247-1.247v-32.63c0-0.689,0.558-1.247,1.247-1.247
					s1.247,0.558,1.247,1.247v32.63C10.232,52.133,9.674,52.692,8.985,52.692z"/>
			</g>
		</g>
		<g>
			<g>
				<path fill="#FFFFFF" d="M14.76,52.692c-0.689,0-1.247-0.558-1.247-1.247v-32.63c0-0.689,0.558-1.247,1.247-1.247
					s1.247,0.558,1.247,1.247v32.63C16.007,52.133,15.449,52.692,14.76,52.692z"/>
			</g>
		</g>
		<g>
			<g>
				<path fill="#FFFFFF" d="M20.535,52.692c-0.689,0-1.247-0.558-1.247-1.247v-32.63c0-0.689,0.558-1.247,1.247-1.247
					c0.689,0,1.247,0.558,1.247,1.247v32.63C21.782,52.133,21.224,52.692,20.535,52.692z"/>
			</g>
		</g>
		<g>
			<g>
				<path fill="#FFFFFF" d="M26.31,52.692c-0.689,0-1.247-0.558-1.247-1.247v-32.63c0-0.689,0.558-1.247,1.247-1.247
					c0.689,0,1.247,0.558,1.247,1.247v32.63C27.557,52.133,26.999,52.692,26.31,52.692z"/>
			</g>
		</g>
		<g>
			<g>
				<path fill="#FFFFFF" d="M32.085,52.692c-0.689,0-1.247-0.558-1.247-1.247v-32.63c0-0.689,0.558-1.247,1.247-1.247
					c0.689,0,1.247,0.558,1.247,1.247v32.63C33.332,52.133,32.773,52.692,32.085,52.692z"/>
			</g>
		</g>
	</g>
</g>
</svg>
