<?xml version="1.0" encoding="utf-8"?>
<!-- Generator: Adobe Illustrator 17.0.0, SVG Export Plug-In . SVG Version: 6.00 Build 0)  -->
<!DOCTYPE svg PUBLIC "-//W3C//DTD SVG 1.1//EN" "http://www.w3.org/Graphics/SVG/1.1/DTD/svg11.dtd">
<svg version="1.1" id="Layer_1" xmlns="http://www.w3.org/2000/svg" xmlns:xlink="http://www.w3.org/1999/xlink" x="0px" y="0px"
	 width="215.122px" height="248.989px" viewBox="0 0 215.122 248.989" enable-background="new 0 0 215.122 248.989"
	 xml:space="preserve">
<g>
	<g>
		<g>
			<path fill="#FFFFFF" d="M207.56,8.636v56.727h-27.986v176.233H8.636V8.636H207.56 M207.56,0H8.636C3.867,0,0,3.867,0,8.636
				v232.96c0,4.77,3.867,8.636,8.636,8.636h170.939c4.77,0,8.636-3.867,8.636-8.636V74h19.349c4.77,0,8.636-3.867,8.636-8.636V8.636
				C216.196,3.867,212.33,0,207.56,0L207.56,0z"/>
		</g>
	</g>
	<g>
		<g>
			<g>
				<path fill="#FFFFFF" d="M78.842,89.765H53.578l-4.468,11.323H33.011l24.186-54.996h18.025l24.186,54.996H83.309L78.842,89.765z
					 M66.209,57.953l-8.626,21.798h17.254L66.209,57.953z"/>
			</g>
		</g>
	</g>
	<g>
		<g>
			<rect x="30.533" y="123.605" fill="#FFFFFF" width="119.111" height="8.636"/>
		</g>
	</g>
	<g>
		<g>
			<rect x="113.946" y="95.897" fill="#FFFFFF" width="35.697" height="8.636"/>
		</g>
	</g>
	<g>
		<g>
			<rect x="113.946" y="68.19" fill="#FFFFFF" width="35.697" height="8.636"/>
		</g>
	</g>
	<g>
		<g>
			<rect x="113.946" y="40.482" fill="#FFFFFF" width="35.697" height="8.636"/>
		</g>
	</g>
	<g>
		<g>
			<rect x="30.533" y="151.314" fill="#FFFFFF" width="119.111" height="8.636"/>
		</g>
	</g>
	<g>
		<g>
			<rect x="30.533" y="179.02" fill="#FFFFFF" width="119.111" height="8.636"/>
		</g>
	</g>
	<g>
		<g>
			<rect x="30.533" y="206.729" fill="#FFFFFF" width="119.111" height="8.636"/>
		</g>
	</g>
	<g>
		<g>
			<g>
				<path fill="#FFFFFF" d="M204.535,78.978h-22.063c0.04,0.622,0.048,1.251-0.008,1.891c-0.166,1.877-0.317,3.772-0.459,5.673
					h18.748v55.467h-18.082c0.619,2.553,0.78,5.126,0.385,7.564h21.479c2.089,0,3.782-1.693,3.782-3.782V82.76
					C208.317,80.671,206.624,78.978,204.535,78.978z"/>
			</g>
		</g>
	</g>
	<g>
		<g>
			<g>
				<path fill="#FFFFFF" d="M198.484,155.119h-15.529c0.581,1.743,0.896,3.566,0.896,5.294c0,0.764-0.074,1.52-0.182,2.269h11.033
					v55.467H182.52c0.246,1.37,0.33,2.771,0.264,4.166c0.038,1.136-0.01,2.276-0.179,3.398h15.88c2.089,0,3.782-1.693,3.782-3.782
					v-63.03C202.266,156.812,200.573,155.119,198.484,155.119z"/>
			</g>
		</g>
	</g>
</g>
</svg>
