<?xml version="1.0" encoding="utf-8"?>
<!-- Generator: Adobe Illustrator 17.0.0, SVG Export Plug-In . SVG Version: 6.00 Build 0)  -->
<!DOCTYPE svg PUBLIC "-//W3C//DTD SVG 1.1//EN" "http://www.w3.org/Graphics/SVG/1.1/DTD/svg11.dtd">
<svg version="1.1" id="Layer_1" xmlns="http://www.w3.org/2000/svg" xmlns:xlink="http://www.w3.org/1999/xlink" x="0px" y="0px"
	 width="105.941px" height="157.025px" viewBox="0 0 105.941 157.025" enable-background="new 0 0 105.941 157.025"
	 xml:space="preserve">
<g>
	<g>
		<g>
			<g>
				<path fill="#E64D3C" d="M56.76,90.319"/>
			</g>
		</g>
		<path fill="#E64D3C" d="M102.982,21.468l-1.092-0.712c-3.016-1.967-7.056-1.117-9.023,1.899l-9.556,14.65l-3.914-2.553
			l-5.893,9.034l3.921,2.557L58.009,76.108c-2.587,3.966-2.372,6.318-2.215,8.036c0.092,1.005,0.114,1.435-0.263,2.014l-2.389,3.662
			c-0.436,0.668-0.248,1.563,0.421,1.999l3.861,2.518c0.334,0.218,0.725,0.28,1.087,0.204c0.362-0.076,0.694-0.29,0.912-0.624
			l2.389-3.662c0.377-0.578,0.781-0.732,1.737-1.053c1.636-0.549,3.875-1.3,6.462-5.266l19.415-29.765l3.921,2.557l5.893-9.034
			l-3.914-2.553l9.556-14.65C106.848,27.475,105.998,23.435,102.982,21.468z M67.591,82.358c-2.038,3.124-3.591,3.645-4.961,4.105
			c-1.077,0.361-2.297,0.771-3.238,2.213l-1.6,2.452l-1.442-0.94l1.6-2.452c0.941-1.443,0.824-2.724,0.721-3.855
			c-0.132-1.439-0.281-3.07,1.757-6.194l2.421-3.712l2.888,1.884l0.631-0.968l-2.888-1.884l5.998-9.195l2.888,1.884l0.631-0.968
			l-2.888-1.884l5.998-9.195l2.888,1.884l0.631-0.968L76.74,52.68l3.104-4.759l7.162,4.672L67.591,82.358z"/>
		<g>
			<g>
				<path fill="#E64D3C" d="M52.907,115.756c-2.92,0-5.296-2.376-5.296-5.297c0-2.679,2.777-6.787,6.493-8.275l1.981-0.793v2.134
					c0,1.96,0.569,2.952,1.119,3.911c0.469,0.817,1,1.744,1,3.023C58.204,113.38,55.828,115.756,52.907,115.756z M53.446,105.885
					c-1.761,1.382-2.946,3.45-2.946,4.574c0,1.327,1.08,2.407,2.407,2.407c1.328,0,2.408-1.08,2.408-2.407
					c0-0.487-0.212-0.879-0.617-1.586C54.276,108.138,53.75,107.221,53.446,105.885z"/>
			</g>
		</g>
	</g>
	<g>
		<g>
			<g>
				<path fill="#E64D3C" d="M35.802,74.484"/>
			</g>
		</g>
		<path fill="#E64D3C" d="M0.468,9.427l6.494,16.241l-4.339,1.735l4.004,10.015l4.346-1.738l13.193,32.997
			c1.758,4.396,3.806,5.573,5.302,6.432c0.874,0.502,1.24,0.732,1.496,1.373l1.623,4.06c0.148,0.37,0.432,0.646,0.772,0.791
			s0.735,0.162,1.105,0.014l4.281-1.711c0.741-0.296,1.101-1.137,0.805-1.877l-1.623-4.06c-0.256-0.641-0.15-1.059,0.138-2.026
			c0.491-1.653,1.164-3.918-0.594-8.314L24.277,30.361l4.346-1.738L24.62,18.608l-4.339,1.735L13.787,4.101
			c-1.337-3.344-5.131-4.97-8.475-3.634L4.101,0.952C0.758,2.289-0.869,6.083,0.468,9.427z M13.655,34.608l7.94-3.175l2.109,5.276
			l-3.202,1.28l0.429,1.073l3.202-1.28l4.076,10.194l-3.202,1.28l0.429,1.073l3.202-1.28l4.076,10.194l-3.202,1.28l0.429,1.073
			l3.202-1.28l1.645,4.115c1.385,3.464,0.918,5.034,0.507,6.419c-0.323,1.089-0.69,2.322-0.05,3.922l1.087,2.718l-1.598,0.639
			l-1.087-2.718c-0.639-1.599-1.756-2.24-2.74-2.806c-1.253-0.719-2.673-1.535-4.058-4.999L13.655,34.608z"/>
		<g>
			<g>
				<path fill="#E64D3C" d="M34.357,96.095c0-1.279,0.531-2.205,1-3.023c0.55-0.959,1.119-1.951,1.119-3.911v-2.134l1.981,0.793
					c3.716,1.487,6.493,5.596,6.493,8.275c0,2.92-2.376,5.297-5.296,5.297C36.734,101.391,34.357,99.015,34.357,96.095z
					 M37.864,94.509c-0.406,0.707-0.617,1.099-0.617,1.586c0,1.327,1.08,2.407,2.408,2.407c1.327,0,2.407-1.08,2.407-2.407
					c0-1.124-1.186-3.192-2.946-4.574C38.811,92.856,38.285,93.773,37.864,94.509z"/>
			</g>
		</g>
	</g>
	<g>
		<path fill="#E64D3C" d="M44.723,141.308c-10.246,0-19.898-0.719-27.18-2.024c-9.019-1.617-13.041-3.818-13.041-7.135
			c0-3.318,4.022-5.519,13.041-7.135c7.282-1.305,16.935-2.024,27.18-2.024s19.897,0.719,27.179,2.024
			c9.019,1.617,13.041,3.818,13.041,7.135c0,3.318-4.022,5.519-13.041,7.135C64.62,140.59,54.968,141.308,44.723,141.308z
			 M9.777,132.149c3.017,1.739,14.851,4.408,34.947,4.408s31.929-2.668,34.946-4.408c-3.017-1.739-14.85-4.408-34.946-4.408
			S12.794,130.41,9.777,132.149z"/>
	</g>
	<g>
		<path fill="#E64D3C" d="M45.074,157.025c-17.737,0-35.455-1.812-40.253-23.462l4.639-1.027
			c3.677,16.593,15.354,19.738,35.614,19.738c20.829,0,32.016-3.198,35.353-20.676l4.667,0.891
			C80.772,155.131,62.954,157.025,45.074,157.025z"/>
	</g>
</g>
</svg>
