<?xml version="1.0" encoding="utf-8"?>
<!-- Generator: Adobe Illustrator 17.0.0, SVG Export Plug-In . SVG Version: 6.00 Build 0)  -->
<!DOCTYPE svg PUBLIC "-//W3C//DTD SVG 1.1//EN" "http://www.w3.org/Graphics/SVG/1.1/DTD/svg11.dtd">
<svg version="1.1" id="Layer_1" xmlns="http://www.w3.org/2000/svg" xmlns:xlink="http://www.w3.org/1999/xlink" x="0px" y="0px"
	 width="213.172px" height="275.855px" viewBox="0 0 213.172 275.855" enable-background="new 0 0 213.172 275.855"
	 xml:space="preserve">
<g>
	<g>
		<path fill="#FFFFFF" d="M30.298,18.865h68.599c5.21,0,9.433-4.224,9.433-9.432c0-5.209-4.223-9.432-9.433-9.432H30.298
			c-5.209,0-9.433,4.224-9.433,9.432C20.865,14.641,25.088,18.865,30.298,18.865z"/>
		<path fill="#FFFFFF" d="M52.128,164.713c-5.125,7.12-4.303,16.713,1.498,22.868c-2.259,1.512-4.538,2.551-6.611,3.208
			c-2.313,0.733-4.365,1.102-5.827,1.368c-1.482,0.256-2.329,0.403-2.329,0.403l0.77,4.053c0,0,0.85-0.178,2.339-0.49
			c1.499-0.331,3.699-0.803,6.297-1.743c2.548-0.918,5.404-2.417,8.027-4.473c3.17,2.261,6.825,3.349,10.446,3.349
			c5.597,0,11.115-2.601,14.635-7.491c10.686-14.846,5.545-38.542,5.545-38.542S62.011,150.984,52.128,164.713z"/>
		<path fill="#FFFFFF" d="M129.195,121.478c0,0,0-0.001,0-0.001v-17.149c0-16.969-24.485-30.53-32.981-34.724V34.013
			c0-0.294-0.03-0.58-0.086-0.858h2.77c2.368,0,4.288-1.919,4.288-4.287c0-2.368-1.919-4.287-4.288-4.287H30.298
			c-2.368,0-4.288,1.919-4.288,4.287c0,2.368,1.919,4.287,4.288,4.287h2.77c-0.056,0.277-0.086,0.564-0.086,0.858v35.591
			C24.485,73.798,0,87.359,0,104.328v17.15v104.309v28.888c0,0.161,0.009,0.32,0.027,0.479c0.637,5.667,5.794,16.385,20.752,16.385
			h87.638c14.958,0,20.114-10.717,20.751-16.385c0.018-0.159,0.027-0.318,0.027-0.479v-28.887v-0.001V121.478z M39.033,76.223
			c1.535-0.693,2.524-2.222,2.524-3.907V34.013c0-0.294-0.03-0.58-0.086-0.858h46.255c-0.056,0.277-0.086,0.564-0.086,0.858v38.302
			c0,1.687,0.989,3.216,2.526,3.909c7.901,3.561,30.455,16.366,30.455,28.103v12.862H8.575v-12.862
			C8.575,92.618,31.131,79.794,39.033,76.223z M8.575,125.765H120.62v95.734H8.575V125.765z M108.417,262.964H20.778
			c-10.127,0-11.914-6.818-12.203-8.588v-24.301H120.62v24.29C120.31,256.221,118.488,262.964,108.417,262.964z"/>
	</g>
	<path fill="#FFFFFF" d="M206.067,131.96c-13.809,19.099-28.813,28.184-42.128,36.245c-11.657,7.057-22.667,13.722-31.525,26.029
		c-0.077,0.107-0.143,0.22-0.219,0.328v31.226v0.001v2.498c2.613-2.058,5.591-3.668,8.827-4.721
		c1.079-0.351,2.163-0.655,3.253-0.935c0.324-0.794,0.663-1.593,1.03-2.402c1.165-2.579,2.616-5.194,4.313-7.747
		c1.685-2.569,3.68-5.02,5.759-7.438c2.105-2.395,4.274-4.776,6.508-7.08c4.448-4.622,9.071-9.001,13.345-13.121
		c2.144-2.055,4.176-4.069,6.097-5.978c1.933-1.903,3.675-3.768,5.264-5.512c1.556-1.767,2.945-3.422,4.08-4.958
		c1.149-1.525,2.07-2.922,2.788-4.082c0.348-0.588,0.658-1.114,0.928-1.571c0.243-0.481,0.45-0.89,0.618-1.222
		c0.334-0.665,0.512-1.02,0.512-1.02l0.5,0.221c0,0-0.143,0.37-0.411,1.064c-0.135,0.347-0.302,0.774-0.498,1.277
		c-0.231,0.497-0.498,1.067-0.796,1.707c-0.615,1.271-1.427,2.771-2.476,4.423c-1.03,1.666-2.303,3.467-3.739,5.398
		c-1.464,1.902-3.081,3.947-4.87,6.027c-1.769,2.101-3.72,4.231-5.722,6.437c-4.015,4.404-8.316,9.044-12.366,13.84
		c-2,2.417-3.959,4.853-5.746,7.339c-1.758,2.503-3.476,4.956-5.013,7.386c-0.835,1.177-1.509,2.414-2.288,3.559
		c-0.451,0.755-0.885,1.479-1.323,2.212c2.602-0.334,5.301-0.507,8.178-0.507c4.546,0,8.949,0.389,13.61,0.8
		c4.798,0.423,9.758,0.86,15.031,0.86c3.313,0,6.521-0.194,9.683-0.56C212.85,191.333,208.777,149.559,206.067,131.96z"/>
	<g>
		<path fill="#FFFFFF" d="M187.587,225.829c-5.405,0-10.433-0.443-15.295-0.872c-4.594-0.405-8.933-0.788-13.347-0.788
			c-6.276,0-11.677,0.806-16.996,2.537c-3.694,1.202-7.011,3.216-9.755,5.838v16.613c0.302-0.136,0.623-0.28,0.985-0.437
			c0.982-0.418,2.15-0.938,3.556-1.421c1.43-0.436,3.061-0.933,4.869-1.396c1.804-0.445,3.771-0.75,5.867-1.091
			c1.048-0.139,2.131-0.223,3.238-0.309c1.108-0.115,2.241-0.137,3.385-0.137c2.304-0.004,4.644,0.16,7.01,0.38
			c2.344,0.225,4.709,0.386,7.03,0.497c2.319,0.056,4.608,0.011,6.826-0.254l0.836-0.077l0.813-0.163
			c0.543-0.104,1.083-0.208,1.621-0.312c1.094-0.148,2.113-0.53,3.14-0.836c0.513-0.158,1.023-0.314,1.527-0.47
			c0.5-0.172,0.971-0.412,1.451-0.611c0.959-0.416,1.898-0.824,2.812-1.22c1.74-0.992,3.458-1.834,4.944-2.794
			c1.477-0.986,2.831-1.89,4.031-2.691c1.154-0.877,2.16-1.642,2.989-2.271c1.665-1.264,2.616-1.986,2.616-1.986l0.37,0.403
			c0,0-0.856,0.842-2.354,2.316c-0.753,0.735-1.654,1.646-2.738,2.639c-1.129,0.948-2.404,2.018-3.794,3.185
			c-1.411,1.149-3.088,2.219-4.798,3.454c-0.91,0.535-1.869,1.055-2.846,1.597c-0.493,0.261-0.975,0.563-1.495,0.799
			c-0.53,0.221-1.065,0.444-1.604,0.669c-1.085,0.44-2.17,0.957-3.352,1.241c-0.584,0.166-1.172,0.334-1.762,0.502l-0.892,0.247
			l-0.909,0.158c-2.432,0.483-4.921,0.723-7.382,0.853c-2.46,0.139-4.875,0.17-7.234,0.25c-2.318,0.067-4.599,0.133-6.806,0.196
			c-2.195-0.033-4.278,0.102-6.289,0.025c-0.999,0.035-1.97,0.068-2.91,0.101c-0.94,0.02-1.871-0.026-2.732,0.046
			c-1.73,0.116-3.343,0.15-4.788,0.185c-1.471,0.081-2.753,0.151-3.809,0.209c-0.531,0.022-1.007,0.036-1.422,0.044v4.997
			c0,0.161-0.009,0.32-0.027,0.479c-0.272,2.417-1.37,5.752-3.696,8.783c4.72,6.918,13.065,10.917,23.341,10.917
			c2.044,0,4.138-0.163,6.223-0.484c36.361-5.61,46.299-31.01,52.875-47.818c0.8-2.046,1.535-3.925,2.262-5.638
			C204.731,224.578,196.514,225.829,187.587,225.829z"/>
	</g>
</g>
</svg>
