<?xml version="1.0" encoding="utf-8"?>
<!-- Generator: Adobe Illustrator 17.0.0, SVG Export Plug-In . SVG Version: 6.00 Build 0)  -->
<!DOCTYPE svg PUBLIC "-//W3C//DTD SVG 1.1//EN" "http://www.w3.org/Graphics/SVG/1.1/DTD/svg11.dtd">
<svg version="1.1" id="Layer_1" xmlns="http://www.w3.org/2000/svg" xmlns:xlink="http://www.w3.org/1999/xlink" x="0px" y="0px"
	 width="50.109px" height="56.786px" viewBox="0 0 50.109 56.786" enable-background="new 0 0 50.109 56.786" xml:space="preserve">
<g>
	<g>
		<g>
			<path fill="#7F8C8D" d="M9.156,45.444L9.156,45.444c-0.332,0-0.65-0.132-0.885-0.367L6.063,42.87
				c-0.235-0.235-0.367-0.553-0.367-0.885s0.132-0.65,0.367-0.885l2.094-2.093c0.264-0.264,0.301-0.483,0.377-1.136
				c0.14-1.2,0.332-2.843,2.666-5.178L34.312,9.582c0.321-0.32,0.907-0.703,1.881-0.703c1.497,0,3.352,0.919,4.234,1.778
				c0.001,0.001,0.002,0.003,0.004,0.004c0.01,0.009,0.019,0.018,0.028,0.027c1.081,1.089,2.755,4.487,1.101,6.141L18.448,39.941
				c-2.335,2.335-3.978,2.526-5.178,2.666c-0.653,0.076-0.872,0.113-1.136,0.377l-2.094,2.094
				C9.806,45.313,9.488,45.444,9.156,45.444z M8.719,41.985l0.437,0.437l1.209-1.209c0.892-0.892,1.848-1.003,2.616-1.093
				c0.973-0.113,1.979-0.231,3.698-1.95l23.07-23.07c0.128-0.46-0.443-2.02-1.063-2.645c-0.004-0.004-0.008-0.008-0.012-0.012
				c-0.486-0.471-1.74-1.061-2.481-1.061c-0.078,0-0.128,0.007-0.155,0.013L12.971,34.463c-1.719,1.719-1.836,2.725-1.95,3.698
				c-0.089,0.768-0.201,1.724-1.093,2.616L8.719,41.985z"/>
		</g>
	</g>
	<g>
		<g>
			<path fill="#7F8C8D" d="M9.707,9.707"/>
		</g>
	</g>
	<g>
		<g>
			<path fill="#7F8C8D" d="M8.96,43.43"/>
		</g>
	</g>
	<g>
		<g>
			<line fill="#7F8C8D" x1="14.354" y1="31.049" x2="16.827" y2="33.522"/>
		</g>
		<g>
			
				<rect x="13.842" y="31.785" transform="matrix(0.7071 0.7071 -0.7071 0.7071 27.396 -1.568)" fill="#7F8C8D" width="3.497" height="1.001"/>
		</g>
	</g>
	<g>
		<g>
			<line fill="#7F8C8D" x1="20.165" y1="25.239" x2="22.637" y2="27.712"/>
		</g>
		<g>
			
				<rect x="19.652" y="25.975" transform="matrix(0.7071 0.7071 -0.7071 0.7071 24.9891 -7.3782)" fill="#7F8C8D" width="3.497" height="1.001"/>
		</g>
	</g>
	<g>
		<g>
			<line fill="#7F8C8D" x1="25.975" y1="19.429" x2="28.448" y2="21.902"/>
		</g>
		<g>
			
				<rect x="25.463" y="20.164" transform="matrix(0.7071 0.7071 -0.7071 0.7071 22.5825 -13.1888)" fill="#7F8C8D" width="3.497" height="1.001"/>
		</g>
	</g>
	<g>
		<g>
			
				<rect x="26.402" y="13.066" transform="matrix(0.7071 0.7071 -0.7071 0.7071 21.9038 -19.4447)" fill="#7F8C8D" width="16.043" height="7.304"/>
		</g>
	</g>
	<g>
		<g>
			<path fill="#7F8C8D" d="M39.597,18.414c-1.724,1.724-4.52,1.724-6.244,0l-0.624-0.624c-1.724-1.724-1.724-4.52,0-6.244
				l9.219-9.219c1.724-1.724,4.52-1.724,6.244,0l0.624,0.624c1.724,1.724,1.724,4.52,0,6.244L39.597,18.414z"/>
		</g>
	</g>
	<g>
		<g>
			<path fill="#7F8C8D" d="M6.352,56.786c-2.129,0-3.86-1.732-3.86-3.86c0-2.108,2.178-4.9,4.569-5.857l1.717-0.687v1.849
				c0,1.254,0.351,1.865,0.721,2.512c0.334,0.583,0.713,1.244,0.713,2.183C10.212,55.054,8.48,56.786,6.352,56.786z M6.562,50.316
				c-0.964,0.883-1.567,2.037-1.567,2.61c0,0.748,0.609,1.357,1.357,1.357c0.748,0,1.357-0.609,1.357-1.357
				c0-0.261-0.124-0.488-0.381-0.938C7.078,51.554,6.778,51.03,6.562,50.316z"/>
		</g>
	</g>
	<g>
		<g>
			<path fill="#7F8C8D" d="M9.707,19.413C4.354,19.413,0,15.059,0,9.707S4.354,0,9.707,0s9.707,4.354,9.707,9.707
				S15.059,19.413,9.707,19.413z M9.707,2.503c-3.972,0-7.204,3.231-7.204,7.204s3.232,7.204,7.204,7.204s7.204-3.231,7.204-7.204
				S13.679,2.503,9.707,2.503z"/>
		</g>
	</g>
	<g>
		<g>
			<path fill="#7F8C8D" d="M9.707,14.513c-0.415,0-0.751-0.336-0.751-0.751v-8.11c0-0.415,0.336-0.751,0.751-0.751
				s0.751,0.336,0.751,0.751v8.11C10.458,14.177,10.121,14.513,9.707,14.513z"/>
		</g>
	</g>
	<g>
		<g>
			<path fill="#7F8C8D" d="M9.707,14.513c-0.415,0-0.751-0.336-0.751-0.751v-8.11c0-0.415,0.336-0.751,0.751-0.751
				s0.751,0.336,0.751,0.751v8.11C10.458,14.177,10.121,14.513,9.707,14.513z"/>
		</g>
	</g>
	<g>
		<g>
			<path fill="#7F8C8D" d="M13.762,10.458H5.651c-0.415,0-0.751-0.336-0.751-0.751s0.336-0.751,0.751-0.751h8.111
				c0.415,0,0.751,0.336,0.751,0.751S14.177,10.458,13.762,10.458z"/>
		</g>
	</g>
</g>
</svg>
