<?xml version="1.0" encoding="utf-8"?>
<!-- Generator: Adobe Illustrator 17.0.0, SVG Export Plug-In . SVG Version: 6.00 Build 0)  -->
<!DOCTYPE svg PUBLIC "-//W3C//DTD SVG 1.1//EN" "http://www.w3.org/Graphics/SVG/1.1/DTD/svg11.dtd">
<svg version="1.1" id="Layer_1" xmlns="http://www.w3.org/2000/svg" xmlns:xlink="http://www.w3.org/1999/xlink" x="0px" y="0px"
	 width="59.497px" height="52.846px" viewBox="0 0 59.497 52.846" enable-background="new 0 0 59.497 52.846" xml:space="preserve">
<g>
	<g>
		<path fill="#FFFFFF" d="M59.175,52.846l-2.668-3.586c-0.146-0.193-0.266-0.354-0.381-0.52c-3.6-5.176-7.985-8.606-13.409-10.485
			c-2.905-1.007-6.144-1.594-10.192-1.847c-0.35-0.022-0.7-0.023-1.064-0.022l-0.001,1.639c-0.002,1.766-0.003,3.532,0.003,5.298
			c0.008,2.207-1.066,3.896-3.026,4.755c-1.953,0.857-3.983,0.454-5.563-1.103c-5.925-5.834-11.843-11.677-17.761-17.519
			l-3.894-3.843c-0.083-0.081-0.162-0.173-0.253-0.283L0,24.206l1.95-1.994c0.713-0.733,1.409-1.449,2.119-2.15
			c6.201-6.128,12.406-12.253,18.616-18.373C23.79,0.6,25.176,0,26.589,0c1.825,0,3.425,0.999,4.278,2.673
			c0.357,0.7,0.562,1.575,0.574,2.462c0.03,2.143,0.026,4.287,0.021,6.453l-0.001,1.023c9.484,1.609,17.009,6.392,22.38,14.229
			c4.251,6.205,6.075,13.366,5.574,21.892L59.175,52.846z M4.134,24.27l3.085,3.054c5.917,5.841,11.835,11.682,17.759,17.516
			c0.727,0.715,1.41,0.864,2.253,0.493c0.867-0.38,1.235-0.978,1.231-1.998c-0.006-1.771-0.005-3.541-0.003-5.312l0.001-4.62h1.5
			c0.306,0,0.6-0.005,0.885-0.009c0.65-0.01,1.259-0.018,1.867,0.02c4.327,0.27,7.818,0.908,10.987,2.006
			c4.929,1.708,9.207,4.673,12.756,8.835c-0.276-5.975-1.955-11.148-5.088-15.721c-5.115-7.464-12.386-11.889-21.61-13.151
			l-1.297-0.178l0.003-3.625c0.005-2.15,0.009-4.277-0.021-6.403c-0.006-0.424-0.099-0.852-0.246-1.142
			C27.854,3.368,27.283,3,26.589,3c-0.619,0-1.258,0.293-1.798,0.825c-6.208,6.119-12.413,12.243-18.612,18.37
			C5.493,22.873,4.821,23.563,4.134,24.27z"/>
	</g>
</g>
</svg>
