1,What are essential oils?,"Essential oils are highly concentrated extracts from plants. They may be extracted from the seed, root, bark, fruit, leaf, flower or other part of the plant.  Essential oils are the plants protection against disease and other threats, such as predators.  Throughout history, essential oils have been used by people for therapeutic and medicinal purposes."
2,How do essential oils work?,"Essential oils are made up of many chemical constituents which are both small in molecular size and lipid soluble.  Because of their small size and lipid solubility, essential oil constituents are easily absorbed through the skin.  This also allows them to pass through the cell membranes of the body and some essential oils can even pass the blood brain barrier.  This allows essential oils to help support the body in many ways such as improving mood, reducing oxidative stress and fighting off environmental threats, such as viruses and parasites."
3,What makes an essential oil pure?,"Pure essential oils are free from purposeful or accidental additives, contaminants, or synthetic substances.  Many tests, such as Gas Chromatography Mass Spectrometry, are used throughout the harvesting and distillation processes to ensure the purity of an essential oil.  Currently there is no industry standard on essential oils and an essential oil bottle has to only have a small percentage of the pure essential oil to carry the label ""pure.""  Careful research and consideration should be taken when choosing the brand of essential oils that are right for you.  "
4,What's in a name?,"Essential oils are produced in a variety of different methods based on the manufacturer.  Many factors, including parts of the plant used, species of plant, extraction method, location and climate of source, etc all affect the chemical make up and thus the quality, potency and therapeutic value of an essential oil.  Again, careful research and consideration should be taken when choosing the brand of essential oils that are right for you."
5,How do I share an essential oil?,"Sharing essential oils is easy. If you identify a reason to share a particular oil, simply offer a few drops of that oil, appropriate to the type of recommended use."
6,Why should I use essential oils?,"Essential oils do not heal or cure. Instead, they provide the body with the tools necessary to do what it was designed to do, heal itself. The effects of essential oils can help rebalance the body, manage emotion, and provide an overall sense of well being."
7,Where can I learn more about essential oils?,"There are numerous published works and online resources available to individuals seeking information about essential oils. Information can be biased if the source is from a specific manufacturer or reseller. It is best to derive information from neutral, unbiased sources where scientific research drives the information being delivered."
8,What if I get an essential on a sensitive area or in my eyes?,"Never use water in an attempt to flush the oil off the skin, as this may increase discomfort. Use coconut, olive or other carrier oil to dilute and reduce oil effects."
9,Why is my skin irritated from an essential oil?,"If you experience skin irritations after using essential oils, it may be caused by overuse or your body going through a detoxification. If you are unsure, consult the manufacture's usage guide."
10,"What is a ""Seasonal Threat""?","""Seasonal Threats"" is a term used to describe typical illness due to seasonal trends like the common cold, influenza, respiratory and general immune system attacks."
