1,Aromatic,A,"Smell directly out of bottle; place one drop in your hand, rub hands together and inhale; or place essential oil in diffuser according to diffuser directions."
2,Topical-Neat,TN,"Apply one to two drops to desired area. Dilute with olive oil, coconut oil, or vegetable oil to minimize any skin sensitivity."
3,Topical-Sensitive,TS,Dilute with olive oil or coconut oil when applying to young or sensitive skin.
4,Topical-Dilute,TD,"Dilute with olive oil, coconut oil, or vegetable oil before applying topically."
5,Internal,I,Follow manufacture's directions for internal use.
